<?xml version="1.0" encoding="utf-8" standalone="yes"?>
<gpx version="1.1" creator="GPS Visualizer http://www.gpsvisualizer.com/" xmlns="http://www.topografix.com/GPX/1/1" xmlns:xsi="http://www.w3.org/2001/XMLSchema-instance" xsi:schemaLocation="http://www.topografix.com/GPX/1/1 http://www.topografix.com/GPX/1/1/gpx.xsd">
<trk>
  <name>RoweremNaPetle</name>
  <trkseg>
    <trkpt lat="54.30610891" lon="18.594467755">
      <ele>74.924</ele>
    </trkpt>
    <trkpt lat="54.306168169" lon="18.594851183">
      <ele>72.961</ele>
    </trkpt>
    <trkpt lat="54.306206564" lon="18.595373691">
      <ele>71.881</ele>
    </trkpt>
    <trkpt lat="54.306272085" lon="18.595997353">
      <ele>69.83</ele>
    </trkpt>
    <trkpt lat="54.306364665" lon="18.59665319">
      <ele>67.136</ele>
    </trkpt>
    <trkpt lat="54.306449002" lon="18.596965875">
      <ele>65.706</ele>
    </trkpt>
    <trkpt lat="54.306832444" lon="18.596857149">
      <ele>65.314</ele>
    </trkpt>
    <trkpt lat="54.30692817" lon="18.597182167">
      <ele>64.144</ele>
    </trkpt>
    <trkpt lat="54.307085596" lon="18.59810872">
      <ele>59.809</ele>
    </trkpt>
    <trkpt lat="54.307303979" lon="18.598761981">
      <ele>56.779</ele>
    </trkpt>
    <trkpt lat="54.307912951" lon="18.599922773">
      <ele>51.394</ele>
    </trkpt>
    <trkpt lat="54.308055222" lon="18.599920467">
      <ele>52.284</ele>
    </trkpt>
    <trkpt lat="54.308153134" lon="18.599875379">
      <ele>52.642</ele>
    </trkpt>
    <trkpt lat="54.308253654" lon="18.600274247">
      <ele>51.726</ele>
    </trkpt>
    <trkpt lat="54.308421872" lon="18.60026132">
      <ele>51.722</ele>
    </trkpt>
    <trkpt lat="54.308940911" lon="18.599848539">
      <ele>48.171</ele>
    </trkpt>
    <trkpt lat="54.309417172" lon="18.599647169">
      <ele>46.368</ele>
    </trkpt>
    <trkpt lat="54.309653195" lon="18.600448261">
      <ele>45.614</ele>
    </trkpt>
    <trkpt lat="54.30977016" lon="18.600883943">
      <ele>45.827</ele>
    </trkpt>
    <trkpt lat="54.309894209" lon="18.601513321">
      <ele>44.552</ele>
    </trkpt>
    <trkpt lat="54.309928387" lon="18.60189195">
      <ele>43.398</ele>
    </trkpt>
    <trkpt lat="54.310047339" lon="18.602196609">
      <ele>42.092</ele>
    </trkpt>
    <trkpt lat="54.310191162" lon="18.602283269">
      <ele>42.0</ele>
    </trkpt>
    <trkpt lat="54.311513461" lon="18.602333766">
      <ele>43.717</ele>
    </trkpt>
    <trkpt lat="54.313941989" lon="18.602813806">
      <ele>57.191</ele>
    </trkpt>
    <trkpt lat="54.31395872" lon="18.603256245">
      <ele>57.07</ele>
    </trkpt>
    <trkpt lat="54.313964877" lon="18.603871696">
      <ele>57.0</ele>
    </trkpt>
    <trkpt lat="54.314058214" lon="18.604698259">
      <ele>52.12</ele>
    </trkpt>
    <trkpt lat="54.314487925" lon="18.605010177">
      <ele>51.313</ele>
    </trkpt>
    <trkpt lat="54.316185886" lon="18.604985624">
      <ele>56.731</ele>
    </trkpt>
    <trkpt lat="54.316219942" lon="18.603695028">
      <ele>57.914</ele>
    </trkpt>
    <trkpt lat="54.316409665" lon="18.603497929">
      <ele>57.183</ele>
    </trkpt>
    <trkpt lat="54.317351989" lon="18.603808623">
      <ele>50.443</ele>
    </trkpt>
    <trkpt lat="54.31832985" lon="18.604051703">
      <ele>42.043</ele>
    </trkpt>
    <trkpt lat="54.318341198" lon="18.604274295">
      <ele>41.556</ele>
    </trkpt>
    <trkpt lat="54.318330922" lon="18.604456227">
      <ele>40.933</ele>
    </trkpt>
    <trkpt lat="54.318181231" lon="18.604518236">
      <ele>41.709</ele>
    </trkpt>
    <trkpt lat="54.318081728" lon="18.604568372">
      <ele>42.323</ele>
    </trkpt>
    <trkpt lat="54.318085312" lon="18.604674811">
      <ele>41.868</ele>
    </trkpt>
    <trkpt lat="54.318332482" lon="18.6047173">
      <ele>39.045</ele>
    </trkpt>
    <trkpt lat="54.318825778" lon="18.604693753">
      <ele>35.58</ele>
    </trkpt>
    <trkpt lat="54.318888885" lon="18.604741737">
      <ele>34.86</ele>
    </trkpt>
    <trkpt lat="54.318860612" lon="18.60481629">
      <ele>34.526</ele>
    </trkpt>
    <trkpt lat="54.318693976" lon="18.604921036">
      <ele>34.972</ele>
    </trkpt>
    <trkpt lat="54.318515014" lon="18.605061375">
      <ele>35.692</ele>
    </trkpt>
    <trkpt lat="54.31855174" lon="18.605146691">
      <ele>35.427</ele>
    </trkpt>
    <trkpt lat="54.318774466" lon="18.605123084">
      <ele>33.824</ele>
    </trkpt>
    <trkpt lat="54.318921239" lon="18.604983346">
      <ele>32.887</ele>
    </trkpt>
    <trkpt lat="54.319116075" lon="18.605151827">
      <ele>30.917</ele>
    </trkpt>
    <trkpt lat="54.319489127" lon="18.605289319">
      <ele>28.763</ele>
    </trkpt>
    <trkpt lat="54.32001227" lon="18.604912598">
      <ele>30.074</ele>
    </trkpt>
    <trkpt lat="54.320555894" lon="18.604369751">
      <ele>31.732</ele>
    </trkpt>
    <trkpt lat="54.321079987" lon="18.603877852">
      <ele>31.178</ele>
    </trkpt>
    <trkpt lat="54.321581587" lon="18.603736295">
      <ele>35.492</ele>
    </trkpt>
    <trkpt lat="54.322097287" lon="18.603587703">
      <ele>38.0</ele>
    </trkpt>
    <trkpt lat="54.322723901" lon="18.603504424">
      <ele>41.612</ele>
    </trkpt>
    <trkpt lat="54.323078641" lon="18.603561069">
      <ele>42.083</ele>
    </trkpt>
    <trkpt lat="54.323118106" lon="18.603627806">
      <ele>42.258</ele>
    </trkpt>
    <trkpt lat="54.323033342" lon="18.603885199">
      <ele>42.908</ele>
    </trkpt>
    <trkpt lat="54.322898594" lon="18.603962154">
      <ele>42.435</ele>
    </trkpt>
    <trkpt lat="54.322677144" lon="18.604055069">
      <ele>41.275</ele>
    </trkpt>
    <trkpt lat="54.322755555" lon="18.605015394">
      <ele>43.0</ele>
    </trkpt>
  </trkseg>
</trk>
</gpx>
