UNIX TIME;TIME;LAT;LONG;ALT;DIST;HR;CAD;TEMP;POWER
1178690400;2007-05-09T06:00:00Z;54,306191;18,595023;74;0;0;0;No Data;No Data
1178690404;2007-05-09T06:00:04Z;54,306222;18,595288;74;0,0175601;0;0;No Data;No Data
1178690428;2007-05-09T06:00:28Z;54,306394;18,596780;66;0,1163662;0;0;No Data;No Data
1178690429;2007-05-09T06:00:29Z;54,306402;18,596834;66;0,1200315;0;0;No Data;No Data
1178690430;2007-05-09T06:00:30Z;54,306412;18,596876;66;0,1230267;0;0;No Data;No Data
1178690430;2007-05-09T06:00:30Z;54,306431;18,596916;66;0,1263966;0;0;No Data;No Data
1178690431;2007-05-09T06:00:31Z;54,306452;18,596940;66;0,129237;0;0;No Data;No Data
1178690432;2007-05-09T06:00:32Z;54,306476;18,596953;66;0,132079;0;0;No Data;No Data
1178690432;2007-05-09T06:00:32Z;54,306505;18,596953;66;0,1353962;0;0;No Data;No Data
1178690433;2007-05-09T06:00:33Z;54,306534;18,596942;66;0,1387822;0;0;No Data;No Data
1178690442;2007-05-09T06:00:42Z;54,306866;18,596830;66;0,1765397;0;0;No Data;No Data
1178690455;2007-05-09T06:00:55Z;54,307342;18,596647;64;0,2308827;0;0;No Data;No Data
1178690459;2007-05-09T06:00:59Z;54,307483;18,596571;64;0,2473299;0;0;No Data;No Data
1178690463;2007-05-09T06:01:03Z;54,307608;18,596486;64;0,2622948;0;0;No Data;No Data
1178690469;2007-05-09T06:01:09Z;54,307822;18,596334;68;0,2881557;0;0;No Data;No Data
1178690504;2007-05-09T06:01:44Z;54,307328;18,594232;72;0,4353174;0;0;No Data;No Data
1178690511;2007-05-09T06:01:51Z;54,307243;18,593873;74;0,4604434;0;0;No Data;No Data
1178690519;2007-05-09T06:01:59Z;54,307129;18,593387;72;0,4943996;0;0;No Data;No Data
1178690521;2007-05-09T06:02:01Z;54,307102;18,593265;72;0,5028033;0;0;No Data;No Data
1178690522;2007-05-09T06:02:02Z;54,307090;18,593208;72;0,5067131;0;0;No Data;No Data
1178690522;2007-05-09T06:02:02Z;54,307081;18,593158;72;0,5100453;0;0;No Data;No Data
1178690523;2007-05-09T06:02:03Z;54,307076;18,593104;72;0,5135763;0;0;No Data;No Data
1178690524;2007-05-09T06:02:04Z;54,307072;18,593042;73;0,5175684;0;0;No Data;No Data
1178690525;2007-05-09T06:02:05Z;54,307071;18,592976;73;0,5218562;0;0;No Data;No Data
1178690526;2007-05-09T06:02:06Z;54,307074;18,592914;73;0,5258607;0;0;No Data;No Data
1178690527;2007-05-09T06:02:07Z;54,307082;18,592835;73;0,5310477;0;0;No Data;No Data
1178690529;2007-05-09T06:02:09Z;54,307092;18,592760;73;0,5360131;0;0;No Data;No Data
1178690530;2007-05-09T06:02:10Z;54,307103;18,592695;73;0,5404286;0;0;No Data;No Data
1178690531;2007-05-09T06:02:11Z;54,307116;18,592624;73;0,5452472;0;0;No Data;No Data
1178690532;2007-05-09T06:02:12Z;54,307133;18,592550;73;0,5504106;0;0;No Data;No Data
1178690533;2007-05-09T06:02:13Z;54,307157;18,592476;75;0,5559251;0;0;No Data;No Data
1178690543;2007-05-09T06:02:23Z;54,307339;18,591960;75;0,5951074;0;0;No Data;No Data
1178690555;2007-05-09T06:02:35Z;54,307575;18,591289;75;0,6460044;0;0;No Data;No Data
1178690557;2007-05-09T06:02:37Z;54,307612;18,591163;75;0,6552002;0;0;No Data;No Data
1178690594;2007-05-09T06:03:14Z;54,308285;18,589126;69;0,8072559;0;0;No Data;No Data
1178690611;2007-05-09T06:03:31Z;54,308606;18,588169;69;0,878944;0;0;No Data;No Data
1178690616;2007-05-09T06:03:36Z;54,308683;18,587898;71;0,8984855;0;0;No Data;No Data
1178690616;2007-05-09T06:03:36Z;54,308683;18,587895;71;0,8986756;0;0;No Data;No Data
1178690617;2007-05-09T06:03:37Z;54,308702;18,587844;71;0,902613;0;0;No Data;No Data
1178690626;2007-05-09T06:03:46Z;54,308904;18,587386;67;0,9399153;0;0;No Data;No Data
1178690626;2007-05-09T06:03:46Z;54,308911;18,587389;67;0,9407439;0;0;No Data;No Data
1178690626;2007-05-09T06:03:46Z;54,30892;18,587390;67;0,9417498;0;0;No Data;No Data
1178690626;2007-05-09T06:03:46Z;54,308928;18,587390;67;0,9426955;0;0;No Data;No Data
1178690626;2007-05-09T06:03:46Z;54,308937;18,587389;67;0,9437192;0;0;No Data;No Data
1178690627;2007-05-09T06:03:47Z;54,308945;18,587387;67;0,944707;0;0;No Data;No Data
1178690627;2007-05-09T06:03:47Z;54,308954;18,587384;67;0,9457569;0;0;No Data;No Data
1178690627;2007-05-09T06:03:47Z;54,308962;18,587380;67;0,9467538;0;0;No Data;No Data
1178690627;2007-05-09T06:03:47Z;54,308971;18,587376;67;0,9477819;0;0;No Data;No Data
1178690628;2007-05-09T06:03:48Z;54,308979;18,587370;67;0,9487419;0;0;No Data;No Data
1178690628;2007-05-09T06:03:48Z;54,308987;18,587364;67;0,9497019;0;0;No Data;No Data
1178690628;2007-05-09T06:03:48Z;54,308988;18,587363;67;0,9499347;0;0;No Data;No Data
1178690628;2007-05-09T06:03:48Z;54,308994;18,587357;67;0,9507412;0;0;No Data;No Data
1178690629;2007-05-09T06:03:49Z;54,309008;18,587342;67;0,9525941;0;0;No Data;No Data
1178690629;2007-05-09T06:03:49Z;54,309015;18,587332;67;0,9535727;0;0;No Data;No Data
1178690629;2007-05-09T06:03:49Z;54,309021;18,587322;67;0,954504;0;0;No Data;No Data
1178690629;2007-05-09T06:03:49Z;54,309027;18,587312;67;0,955464;0;0;No Data;No Data
1178690630;2007-05-09T06:03:50Z;54,309033;18,587300;67;0,9564609;0;0;No Data;No Data
1178690630;2007-05-09T06:03:50Z;54,309038;18,587288;67;0,9573922;0;0;No Data;No Data
1178690630;2007-05-09T06:03:50Z;54,309041;18,587281;67;0,9579625;0;0;No Data;No Data
1178690630;2007-05-09T06:03:50Z;54,309043;18,587276;67;0,9583306;0;0;No Data;No Data
1178690630;2007-05-09T06:03:50Z;54,309047;18,587263;67;0,9592715;0;0;No Data;No Data
1178690630;2007-05-09T06:03:50Z;54,309051;18,587250;67;0,9602315;0;0;No Data;No Data
1178690631;2007-05-09T06:03:51Z;54,309054;18,587236;67;0,9611915;0;0;No Data;No Data
1178690631;2007-05-09T06:03:51Z;54,309057;18,587222;67;0,9621467;0;0;No Data;No Data
1178690631;2007-05-09T06:03:51Z;54,30906;18,587207;67;0,9631616;0;0;No Data;No Data
1178690631;2007-05-09T06:03:51Z;54,309060;18,587203;67;0,9633944;0;0;No Data;No Data
1178690631;2007-05-09T06:03:51Z;54,309061;18,587193;67;0,9640391;0;0;No Data;No Data
1178690632;2007-05-09T06:03:52Z;54,309062;18,587179;67;0,9649557;0;0;No Data;No Data
1178690632;2007-05-09T06:03:52Z;54,309063;18,587165;67;0,9658674;0;0;No Data;No Data
1178690632;2007-05-09T06:03:52Z;54,309063;18,587150;69;0,9667889;0;0;No Data;No Data
1178690632;2007-05-09T06:03:52Z;54,309063;18,587136;69;0,9676496;0;0;No Data;No Data
1178690632;2007-05-09T06:03:52Z;54,309062;18,587122;69;0,9685207;0;0;No Data;No Data
1178690633;2007-05-09T06:03:53Z;54,309061;18,587108;69;0,9693918;0;0;No Data;No Data
1178690633;2007-05-09T06:03:53Z;54,309059;18,587094;69;0,9702733;0;0;No Data;No Data
1178690633;2007-05-09T06:03:53Z;54,309057;18,587081;69;0,9711392;0;0;No Data;No Data
1178690633;2007-05-09T06:03:53Z;54,309054;18,587067;69;0,9720509;0;0;No Data;No Data
1178690634;2007-05-09T06:03:54Z;54,309051;18,587054;69;0,972922;0;0;No Data;No Data
1178690634;2007-05-09T06:03:54Z;54,309047;18,587041;69;0,9738035;0;0;No Data;No Data
1178690634;2007-05-09T06:03:54Z;54,309043;18,587029;69;0,9746537;0;0;No Data;No Data
1178690634;2007-05-09T06:03:54Z;54,309038;18,587017;69;0,9755248;0;0;No Data;No Data
1178690634;2007-05-09T06:03:54Z;54,309033;18,587006;69;0,9763589;0;0;No Data;No Data
1178690635;2007-05-09T06:03:55Z;54,309024;18,586985;69;0,9780134;0;0;No Data;No Data
1178690643;2007-05-09T06:04:03Z;54,309050;18,586470;69;1,011567;0;0;No Data;No Data
1178690645;2007-05-09T06:04:05Z;54,309041;18,586333;72;1,020479;0;0;No Data;No Data
1178690646;2007-05-09T06:04:06Z;54,309048;18,586265;72;1,024931;0;0;No Data;No Data
1178690647;2007-05-09T06:04:07Z;54,309054;18,586208;72;1,028678;0;0;No Data;No Data
1178690652;2007-05-09T06:04:12Z;54,309088;18,585880;72;1,050295;0;0;No Data;No Data
1178690673;2007-05-09T06:04:33Z;54,309262;18,584550;79;1,13882;0;0;No Data;No Data
1178690674;2007-05-09T06:04:34Z;54,309270;18,584479;79;1,143512;0;0;No Data;No Data
1178690675;2007-05-09T06:04:35Z;54,309275;18,584418;79;1,147478;0;0;No Data;No Data
1178690676;2007-05-09T06:04:36Z;54,309278;18,584357;79;1,151455;0;0;No Data;No Data
1178690677;2007-05-09T06:04:37Z;54,309280;18,584283;79;1,156248;0;0;No Data;No Data
1178690679;2007-05-09T06:04:39Z;54,309277;18,584201;79;1,16155;0;0;No Data;No Data
1178690680;2007-05-09T06:04:40Z;54,309266;18,584127;79;1,166461;0;0;No Data;No Data
1178690681;2007-05-09T06:04:41Z;54,309251;18,584055;79;1,171397;0;0;No Data;No Data
1178690682;2007-05-09T06:04:42Z;54,309227;18,583980;79;1,176894;0;0;No Data;No Data
1178690689;2007-05-09T06:04:49Z;54,309106;18,58361;81;1,204433;0;0;No Data;No Data
1178690696;2007-05-09T06:04:56Z;54,308964;18,583232;81;1,233542;0;0;No Data;No Data
1178690698;2007-05-09T06:04:58Z;54,308917;18,583127;81;1,242091;0;0;No Data;No Data
1178690700;2007-05-09T06:05:00Z;54,308876;18,583058;81;1,248431;0;0;No Data;No Data
1178690700;2007-05-09T06:05:00Z;54,308864;18,583042;82;1,250066;0;0;No Data;No Data
1178690701;2007-05-09T06:05:01Z;54,30884;18,583009;82;1,253459;0;0;No Data;No Data
1178690702;2007-05-09T06:05:02Z;54,308798;18,582973;82;1,25863;0;0;No Data;No Data
1178690704;2007-05-09T06:05:04Z;54,308743;18,582936;83;1,265175;0;0;No Data;No Data
1178690706;2007-05-09T06:05:06Z;54,308653;18,582903;83;1,275359;0;0;No Data;No Data
1178690721;2007-05-09T06:05:21Z;54,308116;18,582706;83;1,336419;0;0;No Data;No Data
1178690726;2007-05-09T06:05:26Z;54,307930;18,582624;85;1,357757;0;0;No Data;No Data
1178690732;2007-05-09T06:05:32Z;54,307716;18,582520;85;1,382473;0;0;No Data;No Data
1178690736;2007-05-09T06:05:36Z;54,307579;18,582455;85;1,398284;0;0;No Data;No Data
1178690738;2007-05-09T06:05:38Z;54,307479;18,582401;85;1,409847;0;0;No Data;No Data
1178690740;2007-05-09T06:05:40Z;54,307437;18,582379;85;1,414638;0;0;No Data;No Data
1178690763;2007-05-09T06:06:03Z;54,306610;18,581875;80;1,512342;0;0;No Data;No Data
1178690775;2007-05-09T06:06:15Z;54,306190;18,581610;81;1,562122;0;0;No Data;No Data
1178690803;2007-05-09T06:06:43Z;54,305203;18,581004;83;1,678801;0;0;No Data;No Data
1178690807;2007-05-09T06:06:47Z;54,305069;18,580921;83;1,694606;0;0;No Data;No Data
1178690810;2007-05-09T06:06:50Z;54,304945;18,580844;83;1,709248;0;0;No Data;No Data
1178690823;2007-05-09T06:07:03Z;54,304508;18,580572;84;1,760912;0;0;No Data;No Data
1178690833;2007-05-09T06:07:13Z;54,304159;18,580340;81;1,802555;0;0;No Data;No Data
1178690835;2007-05-09T06:07:15Z;54,304066;18,580280;81;1,81356;0;0;No Data;No Data
1178690839;2007-05-09T06:07:19Z;54,303948;18,580188;81;1,827911;0;0;No Data;No Data
1178690843;2007-05-09T06:07:23Z;54,303803;18,580073;81;1,8456;0;0;No Data;No Data
1178690846;2007-05-09T06:07:26Z;54,303698;18,579947;81;1,85985;0;0;No Data;No Data
1178690848;2007-05-09T06:07:28Z;54,303637;18,579858;81;1,868667;0;0;No Data;No Data
1178690854;2007-05-09T06:07:34Z;54,303475;18,579603;79;1,893067;0;0;No Data;No Data
1178690857;2007-05-09T06:07:37Z;54,303413;18,579485;79;1,90334;0;0;No Data;No Data
1178690861;2007-05-09T06:07:41Z;54,303319;18,579298;79;1,919303;0;0;No Data;No Data
1178690862;2007-05-09T06:07:42Z;54,303293;18,579237;79;1,92414;0;0;No Data;No Data
1178690864;2007-05-09T06:07:44Z;54,303247;18,579105;79;1,934088;0;0;No Data;No Data
1178690869;2007-05-09T06:07:49Z;54,303174;18,578812;79;1,954775;0;0;No Data;No Data
1178690871;2007-05-09T06:07:51Z;54,303139;18,578686;78;1,963809;0;0;No Data;No Data
1178690872;2007-05-09T06:07:52Z;54,303126;18,578646;78;1,966701;0;0;No Data;No Data
1178690873;2007-05-09T06:07:53Z;54,303115;18,578616;78;1,968934;0;0;No Data;No Data
1178690873;2007-05-09T06:07:53Z;54,303103;18,578591;78;1,971038;0;0;No Data;No Data
1178690874;2007-05-09T06:07:54Z;54,303089;18,578568;78;1,97318;0;0;No Data;No Data
1178690874;2007-05-09T06:07:54Z;54,303071;18,578544;78;1,975649;0;0;No Data;No Data
1178690876;2007-05-09T06:07:56Z;54,303014;18,578474;78;1,983424;0;0;No Data;No Data
1178690878;2007-05-09T06:07:58Z;54,302947;18,578416;83;1,99178;0;0;No Data;No Data
1178690878;2007-05-09T06:07:58Z;54,302948;18,578410;83;1,99216;0;0;No Data;No Data
1178690878;2007-05-09T06:07:58Z;54,302949;18,578404;83;1,99254;0;0;No Data;No Data
1178690878;2007-05-09T06:07:58Z;54,302950;18,578398;83;1,99292;0;0;No Data;No Data
1178690878;2007-05-09T06:07:58Z;54,302951;18,578393;83;1,9933;0;0;No Data;No Data
1178690878;2007-05-09T06:07:58Z;54,302952;18,578387;83;1,993725;0;0;No Data;No Data
1178690879;2007-05-09T06:07:59Z;54,302953;18,578381;83;1,994128;0;0;No Data;No Data
1178690879;2007-05-09T06:07:59Z;54,302954;18,578375;83;1,994531;0;0;No Data;No Data
1178690879;2007-05-09T06:07:59Z;54,302954;18,578369;83;1,994934;0;0;No Data;No Data
1178690879;2007-05-09T06:07:59Z;54,302954;18,578362;83;1,995359;0;0;No Data;No Data
1178690879;2007-05-09T06:07:59Z;54,302955;18,578356;83;1,995751;0;0;No Data;No Data
1178690879;2007-05-09T06:07:59Z;54,302955;18,578350;83;1,996131;0;0;No Data;No Data
1178690879;2007-05-09T06:07:59Z;54,302955;18,578343;83;1,996534;0;0;No Data;No Data
1178690879;2007-05-09T06:07:59Z;54,302954;18,578337;83;1,99689;0;0;No Data;No Data
1178690879;2007-05-09T06:07:59Z;54,302954;18,578331;83;1,99727;0;0;No Data;No Data
1178690879;2007-05-09T06:07:59Z;54,302953;18,578325;83;1,99765;0;0;No Data;No Data
1178690880;2007-05-09T06:08:00Z;54,302953;18,578318;83;1,998053;0;0;No Data;No Data
1178690880;2007-05-09T06:08:00Z;54,302952;18,578309;83;1,998591;0;0;No Data;No Data
1178690880;2007-05-09T06:08:00Z;54,302950;18,578300;83;1,999161;0;0;No Data;No Data
1178690880;2007-05-09T06:08:00Z;54,302949;18,578294;83;1,999529;0;0;No Data;No Data
1178690880;2007-05-09T06:08:00Z;54,302947;18,578288;83;1,999885;0;0;No Data;No Data
1178690880;2007-05-09T06:08:00Z;54,302946;18,578283;83;2,000214;0;0;No Data;No Data
1178690880;2007-05-09T06:08:00Z;54,302944;18,578277;83;2,000617;0;0;No Data;No Data
1178690880;2007-05-09T06:08:00Z;54,302942;18,578271;83;2,000973;0;0;No Data;No Data
1178690880;2007-05-09T06:08:00Z;54,302940;18,578266;83;2,001302;0;0;No Data;No Data
1178690880;2007-05-09T06:08:00Z;54,302938;18,578261;83;2,001631;0;0;No Data;No Data
1178690880;2007-05-09T06:08:00Z;54,302936;18,578256;83;2,001974;0;0;No Data;No Data
1178690881;2007-05-09T06:08:01Z;54,302934;18,578251;83;2,002342;0;0;No Data;No Data
1178690881;2007-05-09T06:08:01Z;54,302931;18,578246;83;2,002734;0;0;No Data;No Data
1178690881;2007-05-09T06:08:01Z;54,302929;18,578241;83;2,003077;0;0;No Data;No Data
1178690881;2007-05-09T06:08:01Z;54,302926;18,578237;83;2,003406;0;0;No Data;No Data
1178690881;2007-05-09T06:08:01Z;54,302924;18,578232;83;2,003749;0;0;No Data;No Data
1178690881;2007-05-09T06:08:01Z;54,302921;18,578228;83;2,004117;0;0;No Data;No Data
1178690881;2007-05-09T06:08:01Z;54,302918;18,578224;83;2,004473;0;0;No Data;No Data
1178690881;2007-05-09T06:08:01Z;54,302915;18,578221;83;2,004802;0;0;No Data;No Data
1178690881;2007-05-09T06:08:01Z;54,302912;18,578217;83;2,005182;0;0;No Data;No Data
1178690881;2007-05-09T06:08:01Z;54,302909;18,578214;83;2,005538;0;0;No Data;No Data
1178690881;2007-05-09T06:08:01Z;54,302905;18,578211;83;2,005906;0;0;No Data;No Data
1178690881;2007-05-09T06:08:01Z;54,302902;18,578208;83;2,006207;0;0;No Data;No Data
1178690882;2007-05-09T06:08:02Z;54,302899;18,578206;83;2,006536;0;0;No Data;No Data
1178690882;2007-05-09T06:08:02Z;54,302895;18,578203;83;2,006916;0;0;No Data;No Data
1178690882;2007-05-09T06:08:02Z;54,302892;18,578201;83;2,007245;0;0;No Data;No Data
1178690882;2007-05-09T06:08:02Z;54,302887;18,578199;83;2,00772;0;0;No Data;No Data
1178690883;2007-05-09T06:08:03Z;54,302898;18,578103;83;2,014081;0;0;No Data;No Data
1178690884;2007-05-09T06:08:04Z;54,3029;18,578068;83;2,016326;0;0;No Data;No Data
1178690886;2007-05-09T06:08:06Z;54,302887;18,577956;83;2,023733;0;0;No Data;No Data
1178690888;2007-05-09T06:08:08Z;54,302856;18,577784;83;2,035402;0;0;No Data;No Data
1178690891;2007-05-09T06:08:11Z;54,302815;18,577639;83;2,045816;0;0;No Data;No Data
1178690892;2007-05-09T06:08:12Z;54,302798;18,577597;83;2,049098;0;0;No Data;No Data
1178690894;2007-05-09T06:08:14Z;54,302759;18,577499;83;2,056751;0;0;No Data;No Data
1178690897;2007-05-09T06:08:17Z;54,302691;18,577331;83;2,069953;0;0;No Data;No Data
1178690900;2007-05-09T06:08:20Z;54,302645;18,577137;83;2,083514;0;0;No Data;No Data
1178690905;2007-05-09T06:08:25Z;54,302615;18,576840;83;2,103052;0;0;No Data;No Data
1178690909;2007-05-09T06:08:29Z;54,302606;18,576587;83;2,119507;0;0;No Data;No Data
1178690915;2007-05-09T06:08:35Z;54,302595;18,576171;84;2,146522;0;0;No Data;No Data
1178690916;2007-05-09T06:08:36Z;54,302597;18,576101;84;2,151035;0;0;No Data;No Data
1178690921;2007-05-09T06:08:41Z;54,302606;18,575777;84;2,17207;0;0;No Data;No Data
1178690927;2007-05-09T06:08:47Z;54,302670;18,575432;86;2,195598;0;0;No Data;No Data
1178690935;2007-05-09T06:08:55Z;54,302788;18,574924;86;2,231089;0;0;No Data;No Data
1178690955;2007-05-09T06:09:15Z;54,303073;18,573744;85;2,314051;0;0;No Data;No Data
1178690975;2007-05-09T06:09:35Z;54,303348;18,572604;84;2,394151;0;0;No Data;No Data
1178690997;2007-05-09T06:09:57Z;54,303674;18,571266;85;2,488322;0;0;No Data;No Data
1178690999;2007-05-09T06:09:59Z;54,303707;18,571130;85;2,497856;0;0;No Data;No Data
1178691003;2007-05-09T06:10:03Z;54,303757;18,570929;85;2,512029;0;0;No Data;No Data
1178691007;2007-05-09T06:10:07Z;54,303813;18,570716;87;2,527237;0;0;No Data;No Data
1178691008;2007-05-09T06:10:08Z;54,303835;18,570613;87;2,534387;0;0;No Data;No Data
1178691011;2007-05-09T06:10:11Z;54,303864;18,570475;87;2,543905;0;0;No Data;No Data
1178691012;2007-05-09T06:10:12Z;54,303881;18,570396;86;2,549352;0;0;No Data;No Data
1178691013;2007-05-09T06:10:13Z;54,303898;18,570322;86;2,554555;0;0;No Data;No Data
1178691015;2007-05-09T06:10:15Z;54,303927;18,570208;86;2,562626;0;0;No Data;No Data
1178691017;2007-05-09T06:10:17Z;54,303953;18,570100;86;2,570188;0;0;No Data;No Data
1178691020;2007-05-09T06:10:20Z;54,303993;18,569938;86;2,581602;0;0;No Data;No Data
1178691023;2007-05-09T06:10:23Z;54,304048;18,569723;86;2,596892;0;0;No Data;No Data
1178691028;2007-05-09T06:10:28Z;54,304112;18,569450;85;2,616008;0;0;No Data;No Data
1178691033;2007-05-09T06:10:33Z;54,304186;18,569154;85;2,636943;0;0;No Data;No Data
1178691036;2007-05-09T06:10:36Z;54,304234;18,568989;85;2,648884;0;0;No Data;No Data
1178691037;2007-05-09T06:10:37Z;54,304263;18,568907;85;2,655137;0;0;No Data;No Data
1178691038;2007-05-09T06:10:38Z;54,304272;18,568883;85;2,657019;0;0;No Data;No Data
1178691041;2007-05-09T06:10:41Z;54,304338;18,568694;84;2,671327;0;0;No Data;No Data
1178691046;2007-05-09T06:10:46Z;54,304435;18,568450;84;2,690514;0;0;No Data;No Data
1178691050;2007-05-09T06:10:50Z;54,304524;18,568257;84;2,706523;0;0;No Data;No Data
1178691054;2007-05-09T06:10:54Z;54,304645;18,568035;87;2,726219;0;0;No Data;No Data
1178691058;2007-05-09T06:10:58Z;54,304741;18,567878;87;2,741032;0;0;No Data;No Data
1178691062;2007-05-09T06:11:02Z;54,304865;18,567707;87;2,758804;0;0;No Data;No Data
1178691063;2007-05-09T06:11:03Z;54,304890;18,567676;87;2,762234;0;0;No Data;No Data
1178691067;2007-05-09T06:11:07Z;54,305014;18,567519;87;2,779414;0;0;No Data;No Data
1178691072;2007-05-09T06:11:12Z;54,305186;18,567350;87;2,801519;0;0;No Data;No Data
1178691077;2007-05-09T06:11:17Z;54,305342;18,567229;87;2,820592;0;0;No Data;No Data
1178691077;2007-05-09T06:11:17Z;54,305355;18,567219;87;2,822227;0;0;No Data;No Data
1178691079;2007-05-09T06:11:19Z;54,305429;18,567169;87;2,831122;0;0;No Data;No Data
1178691082;2007-05-09T06:11:22Z;54,305508;18,567115;86;2,840582;0;0;No Data;No Data
1178691085;2007-05-09T06:11:25Z;54,305609;18,567056;86;2,852529;0;0;No Data;No Data
1178691085;2007-05-09T06:11:25Z;54,305621;18,567051;86;2,8539;0;0;No Data;No Data
1178691088;2007-05-09T06:11:28Z;54,305714;18,567007;86;2,864713;0;0;No Data;No Data
1178691090;2007-05-09T06:11:30Z;54,305794;18,566979;86;2,873858;0;0;No Data;No Data
1178691092;2007-05-09T06:11:32Z;54,305871;18,566953;86;2,882611;0;0;No Data;No Data
1178691095;2007-05-09T06:11:35Z;54,306003;18,566913;86;2,897575;0;0;No Data;No Data
1178691099;2007-05-09T06:11:39Z;54,306139;18,566899;86;2,912806;0;0;No Data;No Data
1178691105;2007-05-09T06:11:45Z;54,306346;18,566901;86;2,935952;0;0;No Data;No Data
1178691111;2007-05-09T06:11:51Z;54,306596;18,566908;86;2,963844;0;0;No Data;No Data
1178691116;2007-05-09T06:11:56Z;54,306772;18,567009;86;2,984537;0;0;No Data;No Data
1178691116;2007-05-09T06:11:56Z;54,306772;18,567010;86;2,984537;0;0;No Data;No Data
1178691116;2007-05-09T06:11:56Z;54,306775;18,567018;86;2,985182;0;0;No Data;No Data
1178691117;2007-05-09T06:11:57Z;54,306777;18,567026;86;2,985798;0;0;No Data;No Data
1178691117;2007-05-09T06:11:57Z;54,306780;18,567033;86;2,986463;0;0;No Data;No Data
1178691117;2007-05-09T06:11:57Z;54,306784;18,567041;86;2,987155;0;0;No Data;No Data
1178691117;2007-05-09T06:11:57Z;54,306787;18,567048;86;2,987771;0;0;No Data;No Data
1178691117;2007-05-09T06:11:57Z;54,306791;18,567054;86;2,988423;0;0;No Data;No Data
1178691117;2007-05-09T06:11:57Z;54,306791;18,567055;86;2,988557;0;0;No Data;No Data
1178691117;2007-05-09T06:11:57Z;54,306795;18,567061;86;2,989173;0;0;No Data;No Data
1178691118;2007-05-09T06:11:58Z;54,306799;18,567067;86;2,989796;0;0;No Data;No Data
1178691118;2007-05-09T06:11:58Z;54,306803;18,567073;86;2,990412;0;0;No Data;No Data
1178691118;2007-05-09T06:11:58Z;54,306807;18,567078;86;2,991042;0;0;No Data;No Data
1178691118;2007-05-09T06:11:58Z;54,306812;18,567083;86;2,991727;0;0;No Data;No Data
1178691118;2007-05-09T06:11:58Z;54,306816;18,567088;86;2,992357;0;0;No Data;No Data
1178691118;2007-05-09T06:11:58Z;54,306821;18,567092;86;2,993029;0;0;No Data;No Data
1178691118;2007-05-09T06:11:58Z;54,306826;18,567096;86;2,993694;0;0;No Data;No Data
1178691119;2007-05-09T06:11:59Z;54,306831;18,567099;86;2,994346;0;0;No Data;No Data
1178691119;2007-05-09T06:11:59Z;54,306836;18,567102;86;2,995005;0;0;No Data;No Data
1178691119;2007-05-09T06:11:59Z;54,306841;18,567105;86;2,995677;0;0;No Data;No Data
1178691119;2007-05-09T06:11:59Z;54,306846;18,567107;86;2,996356;0;0;No Data;No Data
1178691119;2007-05-09T06:11:59Z;54,306852;18,567109;86;2,997054;0;0;No Data;No Data
1178691119;2007-05-09T06:11:59Z;54,306857;18,567110;86;2,99767;0;0;No Data;No Data
1178691120;2007-05-09T06:12:00Z;54,306865;18,567111;86;2,998562;0;0;No Data;No Data
1178691120;2007-05-09T06:12:00Z;54,306870;18,567111;86;2,999148;0;0;No Data;No Data
1178691120;2007-05-09T06:12:00Z;54,306875;18,567111;86;2,999778;0;0;No Data;No Data
1178691120;2007-05-09T06:12:00Z;54,306881;18,567111;86;3,000437;0;0;No Data;No Data
1178691120;2007-05-09T06:12:00Z;54,306886;18,567109;86;3,001031;0;0;No Data;No Data
1178691120;2007-05-09T06:12:00Z;54,306891;18,567108;86;3,001661;0;0;No Data;No Data
1178691121;2007-05-09T06:12:01Z;54,306896;18,567106;86;3,00232;0;0;No Data;No Data
1178691121;2007-05-09T06:12:01Z;54,306900;18,567104;86;3,002786;0;0;No Data;No Data
1178691121;2007-05-09T06:12:01Z;54,306902;18,567103;86;3,003019;0;0;No Data;No Data
1178691121;2007-05-09T06:12:01Z;54,306907;18,567100;86;3,003605;0;0;No Data;No Data
1178691121;2007-05-09T06:12:01Z;54,306912;18,567097;86;3,004206;0;0;No Data;No Data
1178691121;2007-05-09T06:12:01Z;54,306917;18,567093;86;3,004792;0;0;No Data;No Data
1178691121;2007-05-09T06:12:01Z;54,306921;18,567089;86;3,00537;0;0;No Data;No Data
1178691121;2007-05-09T06:12:01Z;54,306926;18,567085;86;3,006029;0;0;No Data;No Data
1178691122;2007-05-09T06:12:02Z;54,306931;18,567080;86;3,006681;0;0;No Data;No Data
1178691122;2007-05-09T06:12:02Z;54,306935;18,567074;86;3,007282;0;0;No Data;No Data
1178691122;2007-05-09T06:12:02Z;54,306939;18,567069;86;3,007891;0;0;No Data;No Data
1178691122;2007-05-09T06:12:02Z;54,306943;18,567063;86;3,00855;0;0;No Data;No Data
1178691122;2007-05-09T06:12:02Z;54,306947;18,567056;86;3,009209;0;0;No Data;No Data
1178691122;2007-05-09T06:12:02Z;54,306951;18,567050;86;3,009825;0;0;No Data;No Data
1178691123;2007-05-09T06:12:03Z;54,306954;18,567043;86;3,010441;0;0;No Data;No Data
1178691123;2007-05-09T06:12:03Z;54,306958;18,567035;86;3,011093;0;0;No Data;No Data
1178691123;2007-05-09T06:12:03Z;54,306960;18,567031;86;3,011422;0;0;No Data;No Data
1178691129;2007-05-09T06:12:09Z;54,307177;18,566924;88;3,036591;0;0;No Data;No Data
1178691136;2007-05-09T06:12:16Z;54,307437;18,566932;88;3,065597;0;0;No Data;No Data
1178691158;2007-05-09T06:12:38Z;54,308253;18,566954;86;3,156498;0;0;No Data;No Data
1178691163;2007-05-09T06:12:43Z;54,308473;18,566958;86;3,181059;0;0;No Data;No Data
1178691166;2007-05-09T06:12:46Z;54,308579;18,566954;86;3,192874;0;0;No Data;No Data
1178691173;2007-05-09T06:12:53Z;54,308848;18,566959;85;3,222913;0;0;No Data;No Data
1178691175;2007-05-09T06:12:55Z;54,308892;18,566960;85;3,227868;0;0;No Data;No Data
1178691182;2007-05-09T06:13:02Z;54,309173;18,566965;85;3,259254;0;0;No Data;No Data
1178691186;2007-05-09T06:13:06Z;54,309324;18,566971;85;3,27608;0;0;No Data;No Data
1178691189;2007-05-09T06:13:09Z;54,309417;18,566967;85;3,286548;0;0;No Data;No Data
1178691191;2007-05-09T06:13:11Z;54,309512;18,566958;85;3,297215;0;0;No Data;No Data
1178691193;2007-05-09T06:13:13Z;54,309572;18,566952;85;3,304005;0;0;No Data;No Data
1178691195;2007-05-09T06:13:15Z;54,309637;18,566936;87;3,311414;0;0;No Data;No Data
1178691197;2007-05-09T06:13:17Z;54,309707;18,566916;87;3,31937;0;0;No Data;No Data
1178691199;2007-05-09T06:13:19Z;54,309787;18,566885;87;3,328532;0;0;No Data;No Data
1178691201;2007-05-09T06:13:21Z;54,309863;18,566848;87;3,337334;0;0;No Data;No Data
1178691204;2007-05-09T06:13:24Z;54,309976;18,566768;87;3,350994;0;0;No Data;No Data
1178691207;2007-05-09T06:13:27Z;54,310070;18,566686;87;3,362766;0;0;No Data;No Data
1178691212;2007-05-09T06:13:32Z;54,310230;18,566516;87;3,383722;0;0;No Data;No Data
1178691216;2007-05-09T06:13:36Z;54,310344;18,566372;87;3,399493;0;0;No Data;No Data
1178691227;2007-05-09T06:13:47Z;54,310684;18,565942;88;3,446547;0;0;No Data;No Data
1178691231;2007-05-09T06:13:51Z;54,310796;18,565802;88;3,462032;0;0;No Data;No Data
1178691234;2007-05-09T06:13:54Z;54,310884;18,565688;88;3,474295;0;0;No Data;No Data
1178691238;2007-05-09T06:13:58Z;54,311025;18,565514;88;3,493642;0;0;No Data;No Data
1178691240;2007-05-09T06:14:00Z;54,311076;18,565452;88;3,500593;0;0;No Data;No Data
1178691254;2007-05-09T06:14:14Z;54,310771;18,564725;88;3,558719;0;0;No Data;No Data
1178691265;2007-05-09T06:14:25Z;54,310558;18,564151;90;3,602868;0;0;No Data;No Data
1178691268;2007-05-09T06:14:28Z;54,310469;18,563991;90;3,617154;0;0;No Data;No Data
1178691270;2007-05-09T06:14:30Z;54,310435;18,563913;90;3,623446;0;0;No Data;No Data
1178691283;2007-05-09T06:14:43Z;54,310134;18,563234;89;3,678783;0;0;No Data;No Data
1178691290;2007-05-09T06:14:50Z;54,309970;18,562845;88;3,709912;0;0;No Data;No Data
1178691297;2007-05-09T06:14:57Z;54,309816;18,562487;88;3,73879;0;0;No Data;No Data
1178691306;2007-05-09T06:15:06Z;54,309636;18,562053;87;3,773344;0;0;No Data;No Data
1178691309;2007-05-09T06:15:09Z;54,309565;18,561888;86;3,786597;0;0;No Data;No Data
1178691323;2007-05-09T06:15:23Z;54,309259;18,561176;88;3,844019;0;0;No Data;No Data
1178691334;2007-05-09T06:15:34Z;54,308996;18,560633;88;3,889824;0;0;No Data;No Data
1178691341;2007-05-09T06:15:41Z;54,308817;18,560286;90;3,919818;0;0;No Data;No Data
1178691349;2007-05-09T06:15:49Z;54,308591;18,559883;89;3,956023;0;0;No Data;No Data
1178691364;2007-05-09T06:16:04Z;54,308219;18,559221;91;4,015623;0;0;No Data;No Data
1178691366;2007-05-09T06:16:06Z;54,308285;18,559088;91;4,026968;0;0;No Data;No Data
1178691370;2007-05-09T06:16:10Z;54,308364;18,558907;91;4,041646;0;0;No Data;No Data
1178691373;2007-05-09T06:16:13Z;54,308411;18,558758;93;4,052669;0;0;No Data;No Data
1178691375;2007-05-09T06:16:15Z;54,308455;18,558605;93;4,063707;0;0;No Data;No Data
1178691380;2007-05-09T06:16:20Z;54,308523;18,558351;93;4,081819;0;0;No Data;No Data
1178691383;2007-05-09T06:16:23Z;54,308571;18,558149;93;4,09601;0;0;No Data;No Data
1178691384;2007-05-09T06:16:24Z;54,308587;18,558072;93;4,101264;0;0;No Data;No Data
1178691386;2007-05-09T06:16:26Z;54,308599;18,557988;93;4,106831;0;0;No Data;No Data
1178691387;2007-05-09T06:16:27Z;54,308606;18,557891;93;4,113169;0;0;No Data;No Data
1178691389;2007-05-09T06:16:29Z;54,308610;18,557788;93;4,119826;0;0;No Data;No Data
1178691390;2007-05-09T06:16:30Z;54,308607;18,557692;93;4,126043;0;0;No Data;No Data
1178691392;2007-05-09T06:16:32Z;54,308601;18,557586;93;4,132937;0;0;No Data;No Data
1178691395;2007-05-09T06:16:35Z;54,308572;18,557391;93;4,145956;0;0;No Data;No Data
1178691398;2007-05-09T06:16:38Z;54,308520;18,557208;93;4,159134;0;0;No Data;No Data
1178691406;2007-05-09T06:16:46Z;54,308353;18,556787;92;4,192102;0;0;No Data;No Data
1178691412;2007-05-09T06:16:52Z;54,308246;18,556478;92;4,215396;0;0;No Data;No Data
1178691412;2007-05-09T06:16:52Z;54,308243;18,556471;92;4,215862;0;0;No Data;No Data
1178691415;2007-05-09T06:16:55Z;54,308199;18,556293;92;4,228366;0;0;No Data;No Data
1178691416;2007-05-09T06:16:56Z;54,308186;18,556210;92;4,23393;0;0;No Data;No Data
1178691418;2007-05-09T06:16:58Z;54,308178;18,556091;92;4,241679;0;0;No Data;No Data
1178691419;2007-05-09T06:16:59Z;54,308181;18,556012;92;4,246796;0;0;No Data;No Data
1178691420;2007-05-09T06:17:00Z;54,308186;18,555955;92;4,250541;0;0;No Data;No Data
1178691421;2007-05-09T06:17:01Z;54,308192;18,555900;92;4,254154;0;0;No Data;No Data
1178691422;2007-05-09T06:17:02Z;54,308205;18,555825;92;4,259224;0;0;No Data;No Data
1178691423;2007-05-09T06:17:03Z;54,308216;18,555776;92;4,262617;0;0;No Data;No Data
1178691424;2007-05-09T06:17:04Z;54,308241;18,555697;92;4,268482;0;0;No Data;No Data
1178691426;2007-05-09T06:17:06Z;54,308273;18,555620;92;4,274624;0;0;No Data;No Data
1178691431;2007-05-09T06:17:11Z;54,308398;18,555355;92;4,296754;0;0;No Data;No Data
1178691432;2007-05-09T06:17:12Z;54,308412;18,555323;93;4,29935;0;0;No Data;No Data
1178691432;2007-05-09T06:17:12Z;54,308424;18,555289;93;4,30196;0;0;No Data;No Data
1178691433;2007-05-09T06:17:13Z;54,308435;18,555259;93;4,304241;0;0;No Data;No Data
1178691435;2007-05-09T06:17:15Z;54,308459;18,55516;93;4,311222;0;0;No Data;No Data
1178691440;2007-05-09T06:17:20Z;54,308590;18,554893;93;4,333844;0;0;No Data;No Data
1178691451;2007-05-09T06:17:31Z;54,308855;18,554405;89;4,37713;0;0;No Data;No Data
1178691466;2007-05-09T06:17:46Z;54,309285;18,553745;92;4,441434;0;0;No Data;No Data
1178691478;2007-05-09T06:17:58Z;54,309631;18,553264;91;4,491104;0;0;No Data;No Data
1178691491;2007-05-09T06:18:11Z;54,310049;18,552774;92;4,547535;0;0;No Data;No Data
1178691492;2007-05-09T06:18:12Z;54,310070;18,552752;92;4,550273;0;0;No Data;No Data
1178691501;2007-05-09T06:18:21Z;54,31036;18,552462;92;4,587625;0;0;No Data;No Data
1178691506;2007-05-09T06:18:26Z;54,310535;18,552291;93;4,610093;0;0;No Data;No Data
1178691514;2007-05-09T06:18:34Z;54,310778;18,552104;93;4,639808;0;0;No Data;No Data
1178691521;2007-05-09T06:18:41Z;54,311044;18,551899;94;4,672322;0;0;No Data;No Data
1178691527;2007-05-09T06:18:47Z;54,311233;18,551760;94;4,695223;0;0;No Data;No Data
1178691537;2007-05-09T06:18:57Z;54,311579;18,551533;91;4,736542;0;0;No Data;No Data
1178691579;2007-05-09T06:19:39Z;54,313071;18,550716;100;4,910914;0;0;No Data;No Data
1178691588;2007-05-09T06:19:48Z;54,313413;18,550528;100;4,950945;0;0;No Data;No Data
1178691647;2007-05-09T06:20:47Z;54,315529;18,549391;91;5,197902;0;0;No Data;No Data
1178691651;2007-05-09T06:20:51Z;54,31567;18,549309;91;5,214464;0;0;No Data;No Data
1178691692;2007-05-09T06:21:32Z;54,317103;18,548504;94;5,382417;0;0;No Data;No Data
1178691717;2007-05-09T06:21:57Z;54,317991;18,548036;97;5,485832;0;0;No Data;No Data
1178691735;2007-05-09T06:22:15Z;54,318649;18,547674;99;5,562859;0;0;No Data;No Data
1178691753;2007-05-09T06:22:33Z;54,319289;18,547304;101;5,638113;0;0;No Data;No Data
1178691776;2007-05-09T06:22:56Z;54,320098;18,546819;101;5,733608;0;0;No Data;No Data
1178691785;2007-05-09T06:23:05Z;54,320396;18,546619;101;5,769276;0;0;No Data;No Data
1178691792;2007-05-09T06:23:12Z;54,320664;18,546507;103;5,800031;0;0;No Data;No Data
1178691794;2007-05-09T06:23:14Z;54,320733;18,546489;103;5,807851;0;0;No Data;No Data
1178691796;2007-05-09T06:23:16Z;54,320820;18,546467;103;5,817674;0;0;No Data;No Data
1178691799;2007-05-09T06:23:19Z;54,320938;18,546442;103;5,830909;0;0;No Data;No Data
1178691802;2007-05-09T06:23:22Z;54,321027;18,546442;103;5,840862;0;0;No Data;No Data
1178691807;2007-05-09T06:23:27Z;54,321202;18,546483;103;5,860567;0;0;No Data;No Data
1178691808;2007-05-09T06:23:28Z;54,321263;18,546514;107;5,867657;0;0;No Data;No Data
1178691811;2007-05-09T06:23:31Z;54,321378;18,546570;107;5,881053;0;0;No Data;No Data
1178691814;2007-05-09T06:23:34Z;54,321482;18,546620;107;5,893083;0;0;No Data;No Data
1178691819;2007-05-09T06:23:39Z;54,321630;18,546719;107;5,910833;0;0;No Data;No Data
1178691819;2007-05-09T06:23:39Z;54,321660;18,546737;107;5,914485;0;0;No Data;No Data
1178691823;2007-05-09T06:23:43Z;54,321767;18,546801;107;5,927114;0;0;No Data;No Data
1178691827;2007-05-09T06:23:47Z;54,321914;18,546895;107;5,944677;0;0;No Data;No Data
1178691832;2007-05-09T06:23:52Z;54,322088;18,546993;107;5,965124;0;0;No Data;No Data
1178691837;2007-05-09T06:23:57Z;54,322274;18,547065;104;5,986408;0;0;No Data;No Data
1178691841;2007-05-09T06:24:01Z;54,322417;18,547100;104;6,002584;0;0;No Data;No Data
1178691845;2007-05-09T06:24:05Z;54,322587;18,547095;104;6,02158;0;0;No Data;No Data
1178691850;2007-05-09T06:24:10Z;54,322762;18,547044;104;6,041333;0;0;No Data;No Data
1178691853;2007-05-09T06:24:13Z;54,322889;18,546996;104;6,055852;0;0;No Data;No Data
1178691856;2007-05-09T06:24:16Z;54,322993;18,546937;99;6,068084;0;0;No Data;No Data
1178691860;2007-05-09T06:24:20Z;54,323115;18,546843;99;6,083015;0;0;No Data;No Data
1178691862;2007-05-09T06:24:22Z;54,323194;18,546772;99;6,092968;0;0;No Data;No Data
1178691864;2007-05-09T06:24:24Z;54,323238;18,546723;99;6,098869;0;0;No Data;No Data
1178691867;2007-05-09T06:24:27Z;54,323325;18,546620;99;6,1107;0;0;No Data;No Data
1178691869;2007-05-09T06:24:29Z;54,323397;18,546522;99;6,121009;0;0;No Data;No Data
1178691873;2007-05-09T06:24:33Z;54,323491;18,546368;99;6,135539;0;0;No Data;No Data
1178691873;2007-05-09T06:24:33Z;54,323512;18,546320;99;6,139471;0;0;No Data;No Data
1178691881;2007-05-09T06:24:41Z;54,323321;18,545964;99;6,170831;0;0;No Data;No Data
1178691883;2007-05-09T06:24:43Z;54,323265;18,545855;99;6,180174;0;0;No Data;No Data
1178691886;2007-05-09T06:24:46Z;54,323200;18,545711;99;6,191956;0;0;No Data;No Data
1178691889;2007-05-09T06:24:49Z;54,323142;18,545566;99;6,203311;0;0;No Data;No Data
1178691891;2007-05-09T06:24:51Z;54,323111;18,545469;101;6,210426;0;0;No Data;No Data
1178691896;2007-05-09T06:24:56Z;54,323024;18,545161;101;6,232592;0;0;No Data;No Data
1178691900;2007-05-09T06:25:00Z;54,322972;18,544903;101;6,250299;0;0;No Data;No Data
1178691903;2007-05-09T06:25:03Z;54,322941;18,544702;105;6,263722;0;0;No Data;No Data
1178691907;2007-05-09T06:25:07Z;54,322910;18,544470;108;6,279112;0;0;No Data;No Data
1178691912;2007-05-09T06:25:12Z;54,322869;18,544170;108;6,299074;0;0;No Data;No Data
1178691915;2007-05-09T06:25:15Z;54,322839;18,543948;108;6,313841;0;0;No Data;No Data
1178691920;2007-05-09T06:25:20Z;54,322812;18,543675;109;6,331812;0;0;No Data;No Data
1178691921;2007-05-09T06:25:21Z;54,322801;18,543565;109;6,339045;0;0;No Data;No Data
1178691926;2007-05-09T06:25:26Z;54,322774;18,543272;109;6,358253;0;0;No Data;No Data
1178691928;2007-05-09T06:25:28Z;54,322767;18,543145;109;6,366494;0;0;No Data;No Data
1178691929;2007-05-09T06:25:29Z;54,322754;18,543057;109;6,372369;0;0;No Data;No Data
1178691930;2007-05-09T06:25:30Z;54,322749;18,543023;111;6,37463;0;0;No Data;No Data
1178691934;2007-05-09T06:25:34Z;54,322763;18,542754;111;6,392116;0;0;No Data;No Data
1178691946;2007-05-09T06:25:46Z;54,323203;18,542779;110;6,441206;0;0;No Data;No Data
1178691950;2007-05-09T06:25:50Z;54,323350;18,542779;110;6,457638;0;0;No Data;No Data
1178691952;2007-05-09T06:25:52Z;54,323443;18,542776;110;6,468004;0;0;No Data;No Data
1178691955;2007-05-09T06:25:55Z;54,323541;18,542761;110;6,478967;0;0;No Data;No Data
1178691958;2007-05-09T06:25:58Z;54,323662;18,542730;110;6,492652;0;0;No Data;No Data
1178691972;2007-05-09T06:26:12Z;54,324167;18,542544;109;6,55024;0;0;No Data;No Data
1178691973;2007-05-09T06:26:13Z;54,324205;18,542530;109;6,554617;0;0;No Data;No Data
1178691976;2007-05-09T06:26:16Z;54,324323;18,542471;109;6,568288;0;0;No Data;No Data
1178691980;2007-05-09T06:26:20Z;54,324442;18,542413;109;6,58209;0;0;No Data;No Data
1178691983;2007-05-09T06:26:23Z;54,324555;18,542342;109;6,595505;0;0;No Data;No Data
1178691985;2007-05-09T06:26:25Z;54,324628;18,542295;103;6,604255;0;0;No Data;No Data
1178691989;2007-05-09T06:26:29Z;54,324763;18,542188;103;6,620837;0;0;No Data;No Data
1178691993;2007-05-09T06:26:33Z;54,324882;18,542087;106;6,63569;0;0;No Data;No Data
1178691999;2007-05-09T06:26:39Z;54,325082;18,541895;106;6,66128;0;0;No Data;No Data
1178692007;2007-05-09T06:26:47Z;54,325339;18,541655;106;6,693874;0;0;No Data;No Data
1178692012;2007-05-09T06:26:52Z;54,325523;18,541474;105;6,717538;0;0;No Data;No Data
1178692016;2007-05-09T06:26:56Z;54,325642;18,541335;105;6,733588;0;0;No Data;No Data
1178692020;2007-05-09T06:27:00Z;54,325767;18,541176;104;6,750948;0;0;No Data;No Data
1178692024;2007-05-09T06:27:04Z;54,325881;18,541032;104;6,766704;0;0;No Data;No Data
1178692029;2007-05-09T06:27:09Z;54,326015;18,540849;104;6,785748;0;0;No Data;No Data
1178692033;2007-05-09T06:27:13Z;54,326159;18,540661;104;6,805944;0;0;No Data;No Data
1178692035;2007-05-09T06:27:15Z;54,326197;18,540617;104;6,811077;0;0;No Data;No Data
1178692037;2007-05-09T06:27:17Z;54,326264;18,540539;106;6,820104;0;0;No Data;No Data
1178692040;2007-05-09T06:27:20Z;54,326377;18,540423;104;6,834746;0;0;No Data;No Data
1178692044;2007-05-09T06:27:24Z;54,326486;18,540328;104;6,848418;0;0;No Data;No Data
1178692046;2007-05-09T06:27:26Z;54,326563;18,540264;104;6,85802;0;0;No Data;No Data
1178692049;2007-05-09T06:27:29Z;54,326662;18,540199;104;6,869803;0;0;No Data;No Data
1178692051;2007-05-09T06:27:31Z;54,326736;18,540149;104;6,878643;0;0;No Data;No Data
1178692054;2007-05-09T06:27:34Z;54,326839;18,540070;104;6,891301;0;0;No Data;No Data
1178692067;2007-05-09T06:27:47Z;54,327292;18,539724;110;6,946501;0;0;No Data;No Data
1178692078;2007-05-09T06:27:58Z;54,327657;18,539411;109;6,991958;0;0;No Data;No Data
1178692079;2007-05-09T06:27:59Z;54,327671;18,539396;109;6,993864;0;0;No Data;No Data
1178692090;2007-05-09T06:28:10Z;54,328039;18,539029;114;7,041315;0;0;No Data;No Data
1178692096;2007-05-09T06:28:16Z;54,328220;18,538840;114;7,06492;0;0;No Data;No Data
1178692102;2007-05-09T06:28:22Z;54,328101;18,538511;115;7,089997;0;0;No Data;No Data
1178692113;2007-05-09T06:28:33Z;54,327846;18,537912;111;7,138095;0;0;No Data;No Data
1178692128;2007-05-09T06:28:48Z;54,327531;18,537150;113;7,198666;0;0;No Data;No Data
1178692137;2007-05-09T06:28:57Z;54,327315;18,536667;113;7,238094;0;0;No Data;No Data
1178692142;2007-05-09T06:29:02Z;54,327195;18,536400;113;7,259904;0;0;No Data;No Data
1178692145;2007-05-09T06:29:05Z;54,327134;18,536229;113;7,272839;0;0;No Data;No Data
1178692147;2007-05-09T06:29:07Z;54,327102;18,536135;113;7,27985;0;0;No Data;No Data
1178692149;2007-05-09T06:29:09Z;54,327072;18,536036;113;7,287065;0;0;No Data;No Data
1178692153;2007-05-09T06:29:13Z;54,327020;18,535818;113;7,302294;0;0;No Data;No Data
1178692155;2007-05-09T06:29:15Z;54,326996;18,535690;113;7,310998;0;0;No Data;No Data
1178692157;2007-05-09T06:29:17Z;54,326966;18,535514;116;7,322899;0;0;No Data;No Data
1178692160;2007-05-09T06:29:20Z;54,326939;18,535338;116;7,334639;0;0;No Data;No Data
1178692173;2007-05-09T06:29:33Z;54,326828;18,534517;117;7,389303;0;0;No Data;No Data
1178692182;2007-05-09T06:29:42Z;54,326763;18,533959;117;7,426244;0;0;No Data;No Data
1178692187;2007-05-09T06:29:47Z;54,326730;18,533665;119;7,445665;0;0;No Data;No Data
1178692189;2007-05-09T06:29:49Z;54,326716;18,533513;119;7,455636;0;0;No Data;No Data
1178692193;2007-05-09T06:29:53Z;54,326709;18,533306;119;7,469065;0;0;No Data;No Data
1178692193;2007-05-09T06:29:53Z;54,326708;18,533280;119;7,470717;0;0;No Data;No Data
1178692198;2007-05-09T06:29:58Z;54,326715;18,532969;119;7,490867;0;0;No Data;No Data
1178692215;2007-05-09T06:30:15Z;54,326773;18,531852;122;7,563628;0;0;No Data;No Data
1178692221;2007-05-09T06:30:21Z;54,326783;18,531513;122;7,585633;0;0;No Data;No Data
1178692223;2007-05-09T06:30:23Z;54,326787;18,531345;122;7,596495;0;0;No Data;No Data
1178692226;2007-05-09T06:30:26Z;54,326788;18,531174;123;7,607585;0;0;No Data;No Data
1178692230;2007-05-09T06:30:30Z;54,326783;18,530904;123;7,625077;0;0;No Data;No Data
1178692233;2007-05-09T06:30:33Z;54,326769;18,530687;123;7,639216;0;0;No Data;No Data
1178692236;2007-05-09T06:30:36Z;54,326754;18,530542;123;7,648721;0;0;No Data;No Data
1178692236;2007-05-09T06:30:36Z;54,326754;18,530539;123;7,648855;0;0;No Data;No Data
1178692238;2007-05-09T06:30:38Z;54,326735;18,530407;125;7,657665;0;0;No Data;No Data
1178692240;2007-05-09T06:30:40Z;54,326715;18,530293;125;7,665362;0;0;No Data;No Data
1178692242;2007-05-09T06:30:42Z;54,326688;18,530171;125;7,673812;0;0;No Data;No Data
1178692244;2007-05-09T06:30:44Z;54,326656;18,530022;125;7,684093;0;0;No Data;No Data
1178692246;2007-05-09T06:30:46Z;54,326630;18,529909;125;7,691919;0;0;No Data;No Data
1178692251;2007-05-09T06:30:51Z;54,326556;18,529602;127;7,713449;0;0;No Data;No Data
1178692254;2007-05-09T06:30:54Z;54,326519;18,529463;127;7,723346;0;0;No Data;No Data
1178692257;2007-05-09T06:30:57Z;54,326474;18,529252;127;7,737904;0;0;No Data;No Data
1178692260;2007-05-09T06:31:00Z;54,326432;18,529067;127;7,750747;0;0;No Data;No Data
1178692263;2007-05-09T06:31:03Z;54,326395;18,528874;127;7,763893;0;0;No Data;No Data
1178692267;2007-05-09T06:31:07Z;54,326364;18,528638;129;7,779569;0;0;No Data;No Data
1178692270;2007-05-09T06:31:10Z;54,326345;18,528434;129;7,79296;0;0;No Data;No Data
1178692274;2007-05-09T06:31:14Z;54,326323;18,528211;129;7,807595;0;0;No Data;No Data
1178692278;2007-05-09T06:31:18Z;54,326306;18,527963;129;7,823758;0;0;No Data;No Data
1178692282;2007-05-09T06:31:22Z;54,326285;18,527658;129;7,843643;0;0;No Data;No Data
1178692286;2007-05-09T06:31:26Z;54,326271;18,527454;129;7,856971;0;0;No Data;No Data
1178692294;2007-05-09T06:31:34Z;54,326245;18,526931;131;7,891042;0;0;No Data;No Data
1178692303;2007-05-09T06:31:43Z;54,326228;18,526316;138;7,930966;0;0;No Data;No Data
1178692309;2007-05-09T06:31:49Z;54,326225;18,525970;138;7,953386;0;0;No Data;No Data
1178692320;2007-05-09T06:32:00Z;54,326228;18,525229;141;8,00149;0;0;No Data;No Data
1178692327;2007-05-09T06:32:07Z;54,326227;18,524813;141;8,028472;0;0;No Data;No Data
1178692329;2007-05-09T06:32:09Z;54,326227;18,524644;139;8,039418;0;0;No Data;No Data
1178692332;2007-05-09T06:32:12Z;54,326224;18,524492;139;8,049238;0;0;No Data;No Data
1178692334;2007-05-09T06:32:14Z;54,326213;18,524352;139;8,058399;0;0;No Data;No Data
1178692336;2007-05-09T06:32:16Z;54,326201;18,52423;139;8,066428;0;0;No Data;No Data
1178692338;2007-05-09T06:32:18Z;54,326183;18,524093;139;8,075528;0;0;No Data;No Data
1178692341;2007-05-09T06:32:21Z;54,326157;18,523914;139;8,087443;0;0;No Data;No Data
1178692345;2007-05-09T06:32:25Z;54,326118;18,523649;140;8,10516;0;0;No Data;No Data
1178692350;2007-05-09T06:32:30Z;54,326072;18,523386;140;8,122933;0;0;No Data;No Data
1178692352;2007-05-09T06:32:32Z;54,326051;18,523242;140;8,132492;0;0;No Data;No Data
1178692354;2007-05-09T06:32:34Z;54,326038;18,523096;140;8,142027;0;0;No Data;No Data
1178692356;2007-05-09T06:32:36Z;54,326031;18,522955;140;8,151152;0;0;No Data;No Data
1178692358;2007-05-09T06:32:38Z;54,326030;18,522812;141;8,16041;0;0;No Data;No Data
1178692360;2007-05-09T06:32:40Z;54,326033;18,522729;141;8,165795;0;0;No Data;No Data
1178692361;2007-05-09T06:32:41Z;54,326041;18,522644;141;8,171346;0;0;No Data;No Data
1178692364;2007-05-09T06:32:44Z;54,326065;18,522486;141;8,181918;0;0;No Data;No Data
1178692368;2007-05-09T06:32:48Z;54,326114;18,522202;141;8,201169;0;0;No Data;No Data
1178692369;2007-05-09T06:32:49Z;54,326119;18,522178;141;8,202821;0;0;No Data;No Data
1178692374;2007-05-09T06:32:54Z;54,326175;18,521865;141;8,224053;0;0;No Data;No Data
1178692376;2007-05-09T06:32:56Z;54,326192;18,521704;141;8,234643;0;0;No Data;No Data
1178692378;2007-05-09T06:32:58Z;54,326199;18,521624;141;8,239892;0;0;No Data;No Data
1178692379;2007-05-09T06:32:59Z;54,326202;18,521542;141;8,245206;0;0;No Data;No Data
1178692380;2007-05-09T06:33:00Z;54,326199;18,521445;141;8,251458;0;0;No Data;No Data
1178692382;2007-05-09T06:33:02Z;54,326194;18,521352;141;8,257519;0;0;No Data;No Data
1178692385;2007-05-09T06:33:05Z;54,326176;18,521165;139;8,269789;0;0;No Data;No Data
1178692387;2007-05-09T06:33:07Z;54,326154;18,520994;139;8,281086;0;0;No Data;No Data
1178692389;2007-05-09T06:33:09Z;54,326145;18,520921;139;8,285882;0;0;No Data;No Data
1178692393;2007-05-09T06:33:13Z;54,326110;18,520673;139;8,30241;0;0;No Data;No Data
1178692401;2007-05-09T06:33:21Z;54,326037;18,520175;137;8,335698;0;0;No Data;No Data
1178692403;2007-05-09T06:33:23Z;54,326011;18,520057;137;8,343836;0;0;No Data;No Data
1178692404;2007-05-09T06:33:24Z;54,325988;18,519966;137;8,350216;0;0;No Data;No Data
1178692406;2007-05-09T06:33:26Z;54,325966;18,519878;137;8,356401;0;0;No Data;No Data
1178692407;2007-05-09T06:33:27Z;54,325941;18,519780;137;8,363312;0;0;No Data;No Data
1178692409;2007-05-09T06:33:29Z;54,325909;18,519691;137;8,370032;0;0;No Data;No Data
1178692410;2007-05-09T06:33:30Z;54,325876;18,519608;134;8,37649;0;0;No Data;No Data
1178692414;2007-05-09T06:33:34Z;54,325785;18,519430;134;8,391782;0;0;No Data;No Data
1178692421;2007-05-09T06:33:41Z;54,325599;18,519120;134;8,42065;0;0;No Data;No Data
1178692427;2007-05-09T06:33:47Z;54,325426;18,518833;123;8,447422;0;0;No Data;No Data
1178692434;2007-05-09T06:33:54Z;54,325236;18,518518;124;8,476828;0;0;No Data;No Data
1178692440;2007-05-09T06:34:00Z;54,325096;18,518250;124;8,500158;0;0;No Data;No Data
1178692443;2007-05-09T06:34:03Z;54,325013;18,518079;124;8,514554;0;0;No Data;No Data
1178692447;2007-05-09T06:34:07Z;54,324924;18,517897;122;8,529903;0;0;No Data;No Data
1178692451;2007-05-09T06:34:11Z;54,32482;18,517688;122;8,547736;0;0;No Data;No Data
1178692455;2007-05-09T06:34:15Z;54,324735;18,517480;122;8,564184;0;0;No Data;No Data
1178692463;2007-05-09T06:34:23Z;54,324585;18,517060;119;8,596115;0;0;No Data;No Data
1178692469;2007-05-09T06:34:29Z;54,324470;18,516714;119;8,621927;0;0;No Data;No Data
1178692472;2007-05-09T06:34:32Z;54,324408;18,516544;119;8,634904;0;0;No Data;No Data
1178692476;2007-05-09T06:34:36Z;54,324337;18,516338;117;8,650367;0;0;No Data;No Data
1178692480;2007-05-09T06:34:40Z;54,324263;18,516131;120;8,666078;0;0;No Data;No Data
1178692487;2007-05-09T06:34:47Z;54,324105;18,515748;120;8,696489;0;0;No Data;No Data
1178692488;2007-05-09T06:34:48Z;54,324077;18,515687;120;8,701453;0;0;No Data;No Data
1178692496;2007-05-09T06:34:56Z;54,323911;18,515319;122;8,731556;0;0;No Data;No Data
1178692496;2007-05-09T06:34:56Z;54,323897;18,515288;122;8,733998;0;0;No Data;No Data
1178692500;2007-05-09T06:35:00Z;54,323808;18,515090;122;8,750166;0;0;No Data;No Data
1178692503;2007-05-09T06:35:03Z;54,323739;18,514937;117;8,762637;0;0;No Data;No Data
1178692504;2007-05-09T06:35:04Z;54,323722;18,514900;117;8,765613;0;0;No Data;No Data
1178692505;2007-05-09T06:35:05Z;54,323682;18,514816;117;8,772558;0;0;No Data;No Data
1178692507;2007-05-09T06:35:07Z;54,323658;18,514759;117;8,777122;0;0;No Data;No Data
1178692512;2007-05-09T06:35:12Z;54,323531;18,514462;120;8,800991;0;0;No Data;No Data
1178692517;2007-05-09T06:35:17Z;54,323426;18,514181;120;8,822642;0;0;No Data;No Data
1178692521;2007-05-09T06:35:21Z;54,323358;18,513958;120;8,838942;0;0;No Data;No Data
1178692525;2007-05-09T06:35:25Z;54,323305;18,513739;124;8,854249;0;0;No Data;No Data
1178692528;2007-05-09T06:35:28Z;54,323266;18,513549;124;8,867277;0;0;No Data;No Data
1178692531;2007-05-09T06:35:31Z;54,323228;18,513357;124;8,88039;0;0;No Data;No Data
1178692536;2007-05-09T06:35:36Z;54,323167;18,513055;124;8,901071;0;0;No Data;No Data
1178692556;2007-05-09T06:35:56Z;54,322939;18,511827;124;8,984698;0;0;No Data;No Data
1178692566;2007-05-09T06:36:06Z;54,322828;18,511234;126;9,025068;0;0;No Data;No Data
1178692566;2007-05-09T06:36:06Z;54,322827;18,511230;126;9,025301;0;0;No Data;No Data
1178692571;2007-05-09T06:36:11Z;54,322772;18,510936;126;9,045275;0;0;No Data;No Data
1178692575;2007-05-09T06:36:15Z;54,322723;18,510673;126;9,06318;0;0;No Data;No Data
1178692582;2007-05-09T06:36:22Z;54,322647;18,510277;129;9,090209;0;0;No Data;No Data
1178692587;2007-05-09T06:36:27Z;54,322590;18,509915;129;9,114518;0;0;No Data;No Data
1178692592;2007-05-09T06:36:32Z;54,322535;18,509616;131;9,134853;0;0;No Data;No Data
1178692598;2007-05-09T06:36:38Z;54,322482;18,509270;131;9,15805;0;0;No Data;No Data
1178692606;2007-05-09T06:36:46Z;54,322405;18,508736;132;9,193739;0;0;No Data;No Data
1178692619;2007-05-09T06:36:59Z;54,322303;18,507961;135;9,245271;0;0;No Data;No Data
1178692621;2007-05-09T06:37:01Z;54,322289;18,507848;135;9,252747;0;0;No Data;No Data
1178692625;2007-05-09T06:37:05Z;54,322233;18,507580;135;9,2712;0;0;No Data;No Data
1178692629;2007-05-09T06:37:09Z;54,322182;18,507353;135;9,28694;0;0;No Data;No Data
1178692632;2007-05-09T06:37:12Z;54,322132;18,507165;117;9,300281;0;0;No Data;No Data
1178692635;2007-05-09T06:37:15Z;54,322072;18,506982;120;9,313896;0;0;No Data;No Data
1178692639;2007-05-09T06:37:19Z;54,322005;18,506790;120;9,328401;0;0;No Data;No Data
1178692643;2007-05-09T06:37:23Z;54,321922;18,506571;120;9,345267;0;0;No Data;No Data
1178692647;2007-05-09T06:37:27Z;54,321846;18,506363;120;9,361142;0;0;No Data;No Data
1178692651;2007-05-09T06:37:31Z;54,321759;18,506151;122;9,377893;0;0;No Data;No Data
1178692653;2007-05-09T06:37:33Z;54,321701;18,506007;122;9,389218;0;0;No Data;No Data
1178692656;2007-05-09T06:37:36Z;54,321655;18,505883;122;9,398697;0;0;No Data;No Data
1178692658;2007-05-09T06:37:38Z;54,321605;18,505754;122;9,40868;0;0;No Data;No Data
1178692662;2007-05-09T06:37:42Z;54,321521;18,505566;122;9,423969;0;0;No Data;No Data
1178692672;2007-05-09T06:37:52Z;54,321283;18,505088;121;9,464751;0;0;No Data;No Data
1178692676;2007-05-09T06:37:56Z;54,321161;18,504869;116;9,484309;0;0;No Data;No Data
1178692679;2007-05-09T06:37:59Z;54,321083;18,504733;116;9,496657;0;0;No Data;No Data
1178692682;2007-05-09T06:38:02Z;54,321018;18,504608;115;9,507504;0;0;No Data;No Data
1178692692;2007-05-09T06:38:12Z;54,320755;18,504113;115;9,550956;0;0;No Data;No Data
1178692698;2007-05-09T06:38:18Z;54,320614;18,503843;111;9,574427;0;0;No Data;No Data
1178692701;2007-05-09T06:38:21Z;54,320538;18,503689;111;9,587485;0;0;No Data;No Data
1178692703;2007-05-09T06:38:23Z;54,320484;18,503578;111;9,59687;0;0;No Data;No Data
1178692706;2007-05-09T06:38:26Z;54,320421;18,503445;114;9,607964;0;0;No Data;No Data
1178692708;2007-05-09T06:38:28Z;54,320367;18,503322;114;9,61789;0;0;No Data;No Data
1178692711;2007-05-09T06:38:31Z;54,320321;18,503178;114;9,628469;0;0;No Data;No Data
1178692714;2007-05-09T06:38:34Z;54,320286;18,503009;114;9,640049;0;0;No Data;No Data
1178692728;2007-05-09T06:38:48Z;54,320155;18,502124;114;9,6993;0;0;No Data;No Data
1178692730;2007-05-09T06:38:50Z;54,320129;18,501959;114;9,710349;0;0;No Data;No Data
1178692733;2007-05-09T06:38:53Z;54,320097;18,501813;114;9,72044;0;0;No Data;No Data
1178692736;2007-05-09T06:38:56Z;54,320061;18,501645;114;9,732002;0;0;No Data;No Data
1178692741;2007-05-09T06:39:01Z;54,319986;18,501303;114;9,755664;0;0;No Data;No Data
1178692748;2007-05-09T06:39:08Z;54,319897;18,500896;114;9,783851;0;0;No Data;No Data
1178692751;2007-05-09T06:39:11Z;54,319865;18,500713;114;9,796188;0;0;No Data;No Data
1178692753;2007-05-09T06:39:13Z;54,319847;18,500599;114;9,80379;0;0;No Data;No Data
1178692755;2007-05-09T06:39:15Z;54,319836;18,500484;114;9,811317;0;0;No Data;No Data
1178692756;2007-05-09T06:39:16Z;54,319834;18,500390;115;9,817391;0;0;No Data;No Data
1178692758;2007-05-09T06:39:18Z;54,319837;18,500296;115;9,823469;0;0;No Data;No Data
1178692759;2007-05-09T06:39:19Z;54,319844;18,500208;115;9,82924;0;0;No Data;No Data
1178692760;2007-05-09T06:39:20Z;54,319854;18,500123;115;9,83485;0;0;No Data;No Data
1178692762;2007-05-09T06:39:22Z;54,319872;18,500036;115;9,84082;0;0;No Data;No Data
1178692763;2007-05-09T06:39:23Z;54,319893;18,499957;115;9,846445;0;0;No Data;No Data
1178692768;2007-05-09T06:39:28Z;54,319985;18,499678;115;9,867256;0;0;No Data;No Data
1178692776;2007-05-09T06:39:36Z;54,320118;18,499250;117;9,898726;0;0;No Data;No Data
1178692783;2007-05-09T06:39:43Z;54,32024;18,49884;117;9,928613;0;0;No Data;No Data
1178692788;2007-05-09T06:39:48Z;54,320268;18,498494;116;9,951246;0;0;No Data;No Data
1178692792;2007-05-09T06:39:52Z;54,320312;18,498266;116;9,966823;0;0;No Data;No Data
1178692798;2007-05-09T06:39:58Z;54,320348;18,497875;119;9,992479;0;0;No Data;No Data
1178692806;2007-05-09T06:40:06Z;54,320376;18,497347;119;10,02685;0;0;No Data;No Data
1178692807;2007-05-09T06:40:07Z;54,320376;18,497309;119;10,02931;0;0;No Data;No Data
1178692810;2007-05-09T06:40:10Z;54,32038;18,49715;124;10,03964;0;0;No Data;No Data
1178692816;2007-05-09T06:40:16Z;54,320355;18,496717;124;10,06784;0;0;No Data;No Data
1178692817;2007-05-09T06:40:17Z;54,320353;18,496694;124;10,0693;0;0;No Data;No Data
1178692821;2007-05-09T06:40:21Z;54,320331;18,496393;124;10,08897;0;0;No Data;No Data
1178692821;2007-05-09T06:40:21Z;54,320331;18,496388;124;10,08924;0;0;No Data;No Data
1178692825;2007-05-09T06:40:25Z;54,320299;18,496194;132;10,10232;0;0;No Data;No Data
1178692827;2007-05-09T06:40:27Z;54,320259;18,496063;132;10,11188;0;0;No Data;No Data
1178692829;2007-05-09T06:40:29Z;54,320196;18,495938;132;10,12259;0;0;No Data;No Data
1178692833;2007-05-09T06:40:33Z;54,320103;18,495809;132;10,13588;0;0;No Data;No Data
1178692841;2007-05-09T06:40:41Z;54,319877;18,495471;142;10,16919;0;0;No Data;No Data
1178692845;2007-05-09T06:40:45Z;54,319742;18,495268;142;10,18913;0;0;No Data;No Data
1178692853;2007-05-09T06:40:53Z;54,319527;18,494947;140;10,22078;0;0;No Data;No Data
1178692858;2007-05-09T06:40:58Z;54,319373;18,494734;140;10,24272;0;0;No Data;No Data
1178692862;2007-05-09T06:41:02Z;54,319293;18,494567;143;10,25671;0;0;No Data;No Data
1178692864;2007-05-09T06:41:04Z;54,319238;18,494416;143;10,26822;0;0;No Data;No Data
1178692865;2007-05-09T06:41:05Z;54,319235;18,494406;143;10,26892;0;0;No Data;No Data
1178692867;2007-05-09T06:41:07Z;54,319188;18,494243;143;10,28065;0;0;No Data;No Data
1178692879;2007-05-09T06:41:19Z;54,319045;18,493541;144;10,3289;0;0;No Data;No Data
1178692883;2007-05-09T06:41:23Z;54,318993;18,493263;144;10,3478;0;0;No Data;No Data
1178692886;2007-05-09T06:41:26Z;54,318967;18,493140;144;10,35628;0;0;No Data;No Data
1178692887;2007-05-09T06:41:27Z;54,318952;18,493075;144;10,36075;0;0;No Data;No Data
1178692890;2007-05-09T06:41:30Z;54,318912;18,492899;142;10,373;0;0;No Data;No Data
1178692894;2007-05-09T06:41:34Z;54,318852;18,492644;142;10,39082;0;0;No Data;No Data
1178692896;2007-05-09T06:41:36Z;54,318819;18,492511;142;10,40015;0;0;No Data;No Data
1178692898;2007-05-09T06:41:38Z;54,318778;18,492376;144;10,41;0;0;No Data;No Data
1178692900;2007-05-09T06:41:40Z;54,318736;18,492264;144;10,41861;0;0;No Data;No Data
1178692902;2007-05-09T06:41:42Z;54,318689;18,492171;144;10,42652;0;0;No Data;No Data
1178692908;2007-05-09T06:41:48Z;54,318553;18,491884;141;10,4505;0;0;No Data;No Data
1178692918;2007-05-09T06:41:58Z;54,318300;18,491396;141;10,49285;0;0;No Data;No Data
1178692949;2007-05-09T06:42:29Z;54,317537;18,489924;129;10,6207;0;0;No Data;No Data
1178692963;2007-05-09T06:42:43Z;54,317244;18,489205;122;10,67756;0;0;No Data;No Data
1178692966;2007-05-09T06:42:46Z;54,317177;18,489016;122;10,69187;0;0;No Data;No Data
1178692967;2007-05-09T06:42:47Z;54,317165;18,488982;122;10,69442;0;0;No Data;No Data
1178692971;2007-05-09T06:42:51Z;54,317097;18,488747;119;10,71141;0;0;No Data;No Data
1178692980;2007-05-09T06:43:00Z;54,316987;18,488154;119;10,75181;0;0;No Data;No Data
1178692982;2007-05-09T06:43:02Z;54,316966;18,488042;119;10,75942;0;0;No Data;No Data
1178693006;2007-05-09T06:43:26Z;54,316747;18,486535;121;10,86024;0;0;No Data;No Data
1178693019;2007-05-09T06:43:39Z;54,316629;18,485765;123;10,91193;0;0;No Data;No Data
1178693034;2007-05-09T06:43:54Z;54,316483;18,484809;119;10,97606;0;0;No Data;No Data
1178693038;2007-05-09T06:43:58Z;54,316448;18,484571;113;10,99197;0;0;No Data;No Data
1178693041;2007-05-09T06:44:01Z;54,316420;18,484378;113;11,00484;0;0;No Data;No Data
1178693043;2007-05-09T06:44:03Z;54,316402;18,484273;113;11,01192;0;0;No Data;No Data
1178693048;2007-05-09T06:44:08Z;54,316348;18,483952;113;11,03358;0;0;No Data;No Data
1178693062;2007-05-09T06:44:22Z;54,316196;18,483091;114;11,09195;0;0;No Data;No Data
1178693067;2007-05-09T06:44:27Z;54,316134;18,482772;112;11,11379;0;0;No Data;No Data
1178693076;2007-05-09T06:44:36Z;54,316024;18,482214;112;11,15198;0;0;No Data;No Data
1178693080;2007-05-09T06:44:40Z;54,31598;18,481985;111;11,16764;0;0;No Data;No Data
1178693091;2007-05-09T06:44:51Z;54,31585;18,481327;111;11,21276;0;0;No Data;No Data
1178693098;2007-05-09T06:44:58Z;54,315766;18,480898;113;11,24207;0;0;No Data;No Data
1178693100;2007-05-09T06:45:00Z;54,315745;18,480797;113;11,24903;0;0;No Data;No Data
1178693106;2007-05-09T06:45:06Z;54,315666;18,480396;111;11,27652;0;0;No Data;No Data
1178693117;2007-05-09T06:45:17Z;54,315534;18,479731;111;11,32209;0;0;No Data;No Data
1178693140;2007-05-09T06:45:40Z;54,315263;18,478374;111;11,4152;0;0;No Data;No Data
1178693145;2007-05-09T06:45:45Z;54,315198;18,478032;111;11,43856;0;0;No Data;No Data
1178693146;2007-05-09T06:45:46Z;54,315188;18,477979;111;11,44215;0;0;No Data;No Data
1178693151;2007-05-09T06:45:51Z;54,315134;18,477681;111;11,46242;0;0;No Data;No Data
1178693157;2007-05-09T06:45:57Z;54,315071;18,47732;111;11,48689;0;0;No Data;No Data
1178693180;2007-05-09T06:46:20Z;54,314827;18,475911;112;11,5823;0;0;No Data;No Data
1178693187;2007-05-09T06:46:27Z;54,314755;18,475495;113;11,61043;0;0;No Data;No Data
1178693194;2007-05-09T06:46:34Z;54,314681;18,475021;113;11,64228;0;0;No Data;No Data
1178693199;2007-05-09T06:46:39Z;54,314630;18,474694;112;11,66424;0;0;No Data;No Data
1178693205;2007-05-09T06:46:45Z;54,314582;18,474350;118;11,68713;0;0;No Data;No Data
1178693209;2007-05-09T06:46:49Z;54,314545;18,474087;118;11,7047;0;0;No Data;No Data
1178693213;2007-05-09T06:46:53Z;54,314503;18,473883;118;11,71875;0;0;No Data;No Data
1178693215;2007-05-09T06:46:55Z;54,314468;18,473748;114;11,72834;0;0;No Data;No Data
1178693220;2007-05-09T06:47:00Z;54,314399;18,473467;114;11,74811;0;0;No Data;No Data
1178693225;2007-05-09T06:47:05Z;54,314306;18,473177;114;11,76956;0;0;No Data;No Data
1178693228;2007-05-09T06:47:08Z;54,314244;18,473005;114;11,78269;0;0;No Data;No Data
1178693231;2007-05-09T06:47:11Z;54,314184;18,472828;111;11,79593;0;0;No Data;No Data
1178693236;2007-05-09T06:47:16Z;54,314098;18,472556;111;11,81599;0;0;No Data;No Data
1178693238;2007-05-09T06:47:18Z;54,31407;18,47244;111;11,82414;0;0;No Data;No Data
1178693253;2007-05-09T06:47:33Z;54,313986;18,47146;110;11,88846;0;0;No Data;No Data
1178693258;2007-05-09T06:47:38Z;54,313966;18,471137;112;11,90953;0;0;No Data;No Data
1178693267;2007-05-09T06:47:47Z;54,313930;18,470553;112;11,94763;0;0;No Data;No Data
1178693277;2007-05-09T06:47:57Z;54,313873;18,469938;110;11,98802;0;0;No Data;No Data
1178693308;2007-05-09T06:48:28Z;54,313815;18,467949;106;12,11731;0;0;No Data;No Data
1178693317;2007-05-09T06:48:37Z;54,313799;18,467376;106;12,15452;0;0;No Data;No Data
1178693331;2007-05-09T06:48:51Z;54,313787;18,466509;106;12,21078;0;0;No Data;No Data
1178693347;2007-05-09T06:49:07Z;54,313766;18,465484;130;12,27735;0;0;No Data;No Data
1178693348;2007-05-09T06:49:08Z;54,313787;18,465426;118;12,28177;0;0;No Data;No Data
1178693348;2007-05-09T06:49:08Z;54,313804;18,465389;118;12,28488;0;0;No Data;No Data
1178693349;2007-05-09T06:49:09Z;54,313831;18,465336;118;12,28949;0;0;No Data;No Data
1178693351;2007-05-09T06:49:11Z;54,313866;18,465277;118;12,29499;0;0;No Data;No Data
1178693354;2007-05-09T06:49:14Z;54,313945;18,465167;118;12,30638;0;0;No Data;No Data
1178693360;2007-05-09T06:49:20Z;54,314135;18,464938;118;12,33228;0;0;No Data;No Data
1178693363;2007-05-09T06:49:23Z;54,314235;18,464786;118;12,34712;0;0;No Data;No Data
1178693366;2007-05-09T06:49:26Z;54,314311;18,464643;127;12,35966;0;0;No Data;No Data
1178693368;2007-05-09T06:49:28Z;54,314352;18,464547;127;12,3674;0;0;No Data;No Data
1178693370;2007-05-09T06:49:30Z;54,314396;18,464446;127;12,37562;0;0;No Data;No Data
1178693373;2007-05-09T06:49:33Z;54,314443;18,464315;127;12,38559;0;0;No Data;No Data
1178693375;2007-05-09T06:49:35Z;54,314490;18,464156;127;12,39715;0;0;No Data;No Data
1178693379;2007-05-09T06:49:39Z;54,314545;18,463926;127;12,41326;0;0;No Data;No Data
1178693382;2007-05-09T06:49:42Z;54,314576;18,463740;130;12,42578;0;0;No Data;No Data
1178693386;2007-05-09T06:49:46Z;54,314605;18,463516;130;12,44065;0;0;No Data;No Data
1178693389;2007-05-09T06:49:49Z;54,314620;18,463330;118;12,45282;0;0;No Data;No Data
1178693391;2007-05-09T06:49:51Z;54,314622;18,463161;118;12,46375;0;0;No Data;No Data
1178693392;2007-05-09T06:49:52Z;54,314622;18,463137;118;12,46528;0;0;No Data;No Data
1178693394;2007-05-09T06:49:54Z;54,314622;18,462975;118;12,47579;0;0;No Data;No Data
1178693425;2007-05-09T06:50:25Z;54,314546;18,461007;119;12,60383;0;0;No Data;No Data
1178693431;2007-05-09T06:50:31Z;54,314531;18,460621;119;12,62895;0;0;No Data;No Data
1178693437;2007-05-09T06:50:37Z;54,314520;18,460234;118;12,65411;0;0;No Data;No Data
1178693443;2007-05-09T06:50:43Z;54,314526;18,459851;118;12,67895;0;0;No Data;No Data
1178693451;2007-05-09T06:50:51Z;54,314586;18,459312;116;12,71457;0;0;No Data;No Data
1178693461;2007-05-09T06:51:01Z;54,314680;18,458756;119;12,75213;0;0;No Data;No Data
1178693468;2007-05-09T06:51:08Z;54,314779;18,458298;119;12,78386;0;0;No Data;No Data
1178693473;2007-05-09T06:51:13Z;54,314860;18,457986;113;12,80602;0;0;No Data;No Data
1178693475;2007-05-09T06:51:15Z;54,314877;18,457921;113;12,81066;0;0;No Data;No Data
1178693482;2007-05-09T06:51:22Z;54,315021;18,457507;113;12,84193;0;0;No Data;No Data
1178693490;2007-05-09T06:51:30Z;54,315183;18,457075;113;12,87529;0;0;No Data;No Data
1178693492;2007-05-09T06:51:32Z;54,315215;18,456996;113;12,88155;0;0;No Data;No Data
1178693497;2007-05-09T06:51:37Z;54,315330;18,456703;113;12,90449;0;0;No Data;No Data
1178693501;2007-05-09T06:51:41Z;54,315420;18,456488;113;12,92165;0;0;No Data;No Data
1178693506;2007-05-09T06:51:46Z;54,315532;18,456276;118;12,94022;0;0;No Data;No Data
1178693509;2007-05-09T06:51:49Z;54,315616;18,456140;118;12,95307;0;0;No Data;No Data
1178693512;2007-05-09T06:51:52Z;54,315709;18,455998;118;12,96692;0;0;No Data;No Data
1178693515;2007-05-09T06:51:55Z;54,315804;18,455860;118;12,98077;0;0;No Data;No Data
1178693519;2007-05-09T06:51:59Z;54,315915;18,455710;118;12,99649;0;0;No Data;No Data
1178693530;2007-05-09T06:52:10Z;54,316235;18,455283;119;13,04169;0;0;No Data;No Data
1178693543;2007-05-09T06:52:23Z;54,316610;18,454782;117;13,0946;0;0;No Data;No Data
1178693558;2007-05-09T06:52:38Z;54,317061;18,454131;117;13,1603;0;0;No Data;No Data
1178693587;2007-05-09T06:53:07Z;54,317852;18,452862;115;13,28093;0;0;No Data;No Data
1178693588;2007-05-09T06:53:08Z;54,317859;18,452850;115;13,28209;0;0;No Data;No Data
1178693594;2007-05-09T06:53:14Z;54,318025;18,452561;114;13,30848;0;0;No Data;No Data
1178693599;2007-05-09T06:53:19Z;54,318153;18,452299;107;13,33067;0;0;No Data;No Data
1178693602;2007-05-09T06:53:22Z;54,318223;18,452138;114;13,34372;0;0;No Data;No Data
1178693605;2007-05-09T06:53:25Z;54,318272;18,451983;113;13,35517;0;0;No Data;No Data
1178693607;2007-05-09T06:53:27Z;54,318303;18,451887;113;13,36228;0;0;No Data;No Data
1178693613;2007-05-09T06:53:33Z;54,318366;18,451543;113;13,38568;0;0;No Data;No Data
1178693616;2007-05-09T06:53:36Z;54,318391;18,451344;113;13,39885;0;0;No Data;No Data
1178693619;2007-05-09T06:53:39Z;54,318406;18,451103;110;13,41458;0;0;No Data;No Data
1178693622;2007-05-09T06:53:42Z;54,318406;18,450942;110;13,42502;0;0;No Data;No Data
1178693625;2007-05-09T06:53:45Z;54,318406;18,450759;110;13,43685;0;0;No Data;No Data
1178693628;2007-05-09T06:53:48Z;54,318391;18,450566;110;13,44944;0;0;No Data;No Data
1178693630;2007-05-09T06:53:50Z;54,318375;18,450421;107;13,45896;0;0;No Data;No Data
1178693633;2007-05-09T06:53:53Z;54,318352;18,450263;107;13,46949;0;0;No Data;No Data
1178693635;2007-05-09T06:53:55Z;54,318316;18,450118;107;13,47967;0;0;No Data;No Data
1178693638;2007-05-09T06:53:58Z;54,318266;18,449928;107;13,49319;0;0;No Data;No Data
1178693642;2007-05-09T06:54:02Z;54,318202;18,449724;107;13,50821;0;0;No Data;No Data
1178693645;2007-05-09T06:54:05Z;54,318141;18,449538;104;13,52201;0;0;No Data;No Data
1178693649;2007-05-09T06:54:09Z;54,318066;18,449305;104;13,53926;0;0;No Data;No Data
1178693664;2007-05-09T06:54:24Z;54,317750;18,448504;101;13,60202;0;0;No Data;No Data
1178693677;2007-05-09T06:54:37Z;54,317496;18,447860;103;13,65246;0;0;No Data;No Data
1178693681;2007-05-09T06:54:41Z;54,317396;18,447622;103;13,67147;0;0;No Data;No Data
1178693686;2007-05-09T06:54:46Z;54,317290;18,447391;103;13,69052;0;0;No Data;No Data
1178693690;2007-05-09T06:54:50Z;54,317181;18,447166;103;13,70948;0;0;No Data;No Data
1178693695;2007-05-09T06:54:55Z;54,317066;18,446948;106;13,72854;0;0;No Data;No Data
1178693698;2007-05-09T06:54:58Z;54,316982;18,446798;106;13,74198;0;0;No Data;No Data
1178693722;2007-05-09T06:55:22Z;54,316353;18,445675;108;13,84308;0;0;No Data;No Data
1178693727;2007-05-09T06:55:27Z;54,316243;18,445465;110;13,86134;0;0;No Data;No Data
1178693731;2007-05-09T06:55:31Z;54,316146;18,445269;110;13,87796;0;0;No Data;No Data
1178693734;2007-05-09T06:55:34Z;54,316063;18,445100;110;13,89222;0;0;No Data;No Data
1178693737;2007-05-09T06:55:37Z;54,315996;18,444945;110;13,90472;0;0;No Data;No Data
1178693742;2007-05-09T06:55:42Z;54,315894;18,444698;110;13,92431;0;0;No Data;No Data
1178693746;2007-05-09T06:55:46Z;54,315802;18,444443;110;13,94374;0;0;No Data;No Data
1178693749;2007-05-09T06:55:49Z;54,315758;18,444324;110;13,95281;0;0;No Data;No Data
1178693751;2007-05-09T06:55:51Z;54,315716;18,444177;110;13,96342;0;0;No Data;No Data
1178693755;2007-05-09T06:55:55Z;54,315668;18,443962;110;13,97832;0;0;No Data;No Data
1178693756;2007-05-09T06:55:56Z;54,315649;18,443874;110;13,98435;0;0;No Data;No Data
1178693760;2007-05-09T06:56:00Z;54,315617;18,443648;110;13,99942;0;0;No Data;No Data
1178693763;2007-05-09T06:56:03Z;54,315597;18,443437;110;14,01325;0;0;No Data;No Data
1178693767;2007-05-09T06:56:07Z;54,315592;18,443175;110;14,03027;0;0;No Data;No Data
1178693778;2007-05-09T06:56:18Z;54,315590;18,442517;114;14,07295;0;0;No Data;No Data
1178693794;2007-05-09T06:56:34Z;54,315600;18,441431;117;14,14344;0;0;No Data;No Data
1178693797;2007-05-09T06:56:37Z;54,315597;18,441275;117;14,15356;0;0;No Data;No Data
1178693800;2007-05-09T06:56:40Z;54,315589;18,441058;117;14,16766;0;0;No Data;No Data
1178693803;2007-05-09T06:56:43Z;54,315576;18,440873;117;14,17975;0;0;No Data;No Data
1178693804;2007-05-09T06:56:44Z;54,315571;18,440801;117;14,18444;0;0;No Data;No Data
1178693805;2007-05-09T06:56:45Z;54,315569;18,440770;117;14,18641;0;0;No Data;No Data
1178693808;2007-05-09T06:56:48Z;54,315542;18,440554;117;14,2007;0;0;No Data;No Data
1178693811;2007-05-09T06:56:51Z;54,315513;18,440350;116;14,21433;0;0;No Data;No Data
1178693824;2007-05-09T06:57:04Z;54,315389;18,439588;113;14,2657;0;0;No Data;No Data
1178693827;2007-05-09T06:57:07Z;54,315363;18,439400;113;14,27818;0;0;No Data;No Data
1178693831;2007-05-09T06:57:11Z;54,315339;18,439133;113;14,29569;0;0;No Data;No Data
1178693836;2007-05-09T06:57:16Z;54,315331;18,438825;113;14,31567;0;0;No Data;No Data
1178693842;2007-05-09T06:57:22Z;54,315343;18,438415;112;14,34228;0;0;No Data;No Data
1178693850;2007-05-09T06:57:30Z;54,315369;18,437931;113;14,37379;0;0;No Data;No Data
1178693851;2007-05-09T06:57:31Z;54,315375;18,437821;113;14,38094;0;0;No Data;No Data
1178693864;2007-05-09T06:57:44Z;54,315443;18,437006;118;14,43439;0;0;No Data;No Data
1178693868;2007-05-09T06:57:48Z;54,315463;18,436770;118;14,44982;0;0;No Data;No Data
1178693876;2007-05-09T06:57:56Z;54,315497;18,436247;120;14,48398;0;0;No Data;No Data
1178693877;2007-05-09T06:57:57Z;54,315502;18,436162;120;14,48953;0;0;No Data;No Data
1178693881;2007-05-09T06:58:01Z;54,315502;18,435925;120;14,50492;0;0;No Data;No Data
1178693884;2007-05-09T06:58:04Z;54,315493;18,435767;120;14,51521;0;0;No Data;No Data
1178693887;2007-05-09T06:58:07Z;54,315479;18,435581;120;14,52736;0;0;No Data;No Data
1178693889;2007-05-09T06:58:09Z;54,315467;18,435404;122;14,53892;0;0;No Data;No Data
1178693893;2007-05-09T06:58:13Z;54,315455;18,435163;122;14,55461;0;0;No Data;No Data
1178693897;2007-05-09T06:58:17Z;54,315460;18,434931;122;14,56964;0;0;No Data;No Data
1178693900;2007-05-09T06:58:20Z;54,315470;18,434713;122;14,58384;0;0;No Data;No Data
1178693903;2007-05-09T06:58:23Z;54,315491;18,434505;124;14,59752;0;0;No Data;No Data
1178693907;2007-05-09T06:58:27Z;54,315527;18,434280;124;14,61265;0;0;No Data;No Data
1178693911;2007-05-09T06:58:31Z;54,315576;18,434067;124;14,62751;0;0;No Data;No Data
1178693915;2007-05-09T06:58:35Z;54,315643;18,433819;126;14,64522;0;0;No Data;No Data
1178693919;2007-05-09T06:58:39Z;54,315709;18,433600;126;14,66123;0;0;No Data;No Data
1178693922;2007-05-09T06:58:42Z;54,315765;18,433418;126;14,67457;0;0;No Data;No Data
1178693926;2007-05-09T06:58:46Z;54,315852;18,433194;126;14,69205;0;0;No Data;No Data
1178693928;2007-05-09T06:58:48Z;54,315888;18,433119;126;14,6984;0;0;No Data;No Data
1178693930;2007-05-09T06:58:50Z;54,315938;18,43303;126;14,70648;0;0;No Data;No Data
1178693937;2007-05-09T06:58:57Z;54,316131;18,432724;128;14,73574;0;0;No Data;No Data
1178693946;2007-05-09T06:59:06Z;54,316393;18,432336;130;14,77433;0;0;No Data;No Data
1178693949;2007-05-09T06:59:09Z;54,316487;18,432182;130;14,7888;0;0;No Data;No Data
1178693969;2007-05-09T06:59:29Z;54,317036;18,431346;130;14,87059;0;0;No Data;No Data
1178693979;2007-05-09T06:59:39Z;54,317303;18,430937;130;14,9105;0;0;No Data;No Data
1178693988;2007-05-09T06:59:48Z;54,317558;18,430535;130;14,94908;0;0;No Data;No Data
1178693988;2007-05-09T06:59:48Z;54,317573;18,430512;130;14,95132;0;0;No Data;No Data
1178693991;2007-05-09T06:59:51Z;54,317659;18,430376;132;14,96435;0;0;No Data;No Data
1178693994;2007-05-09T06:59:54Z;54,317737;18,430258;132;14,97595;0;0;No Data;No Data
1178693997;2007-05-09T06:59:57Z;54,317807;18,430151;132;14,98645;0;0;No Data;No Data
1178693999;2007-05-09T06:59:59Z;54,317871;18,430052;132;14,99604;0;0;No Data;No Data
1178694001;2007-05-09T07:00:01Z;54,317927;18,429950;132;15,00513;0;0;No Data;No Data
1178694001;2007-05-09T07:00:01Z;54,317934;18,429938;132;15,00624;0;0;No Data;No Data
1178694003;2007-05-09T07:00:03Z;54,317976;18,429841;136;15,01412;0;0;No Data;No Data
1178694006;2007-05-09T07:00:06Z;54,318030;18,429718;136;15,02409;0;0;No Data;No Data
1178694008;2007-05-09T07:00:08Z;54,318078;18,429589;137;15,03405;0;0;No Data;No Data
1178694009;2007-05-09T07:00:09Z;54,318088;18,429563;137;15,03606;0;0;No Data;No Data
1178694015;2007-05-09T07:00:15Z;54,318216;18,429195;137;15,06388;0;0;No Data;No Data
1178694027;2007-05-09T07:00:27Z;54,318437;18,428557;138;15,11206;0;0;No Data;No Data
1178694028;2007-05-09T07:00:28Z;54,318460;18,428483;138;15,11749;0;0;No Data;No Data
1178694043;2007-05-09T07:00:43Z;54,318726;18,427662;139;15,1785;0;0;No Data;No Data
